-1.063	0.00052168
-1.0625	0.000522065
-1.062	0.000522449
-1.0615	0.000522833
-1.061	0.000523218
-1.0605	0.000523598
-1.06	0.000523982
-1.0595	0.000524367
-1.059	0.000524751
-1.0585	0.000525135
-1.058	0.00052552
-1.0575	0.000525904
-1.057	0.000526288
-1.0565	0.000526673
-1.056	0.000527057
-1.0555	0.000527437
-1.055	0.000527822
-1.0545	0.000528206
-1.054	0.00052859
-1.0535	0.000528975
-1.053	0.000529359
-1.0525	0.000529765
-1.052	0.000530175
-1.0515	0.00053058
-1.051	0.00053099
-1.0505	0.000531396
-1.05	0.000531806
-1.0495	0.000532212
-1.049	0.000532622
-1.0485	0.000533028
-1.048	0.000533438
-1.0475	0.000533843
-1.047	0.000534253
-1.0465	0.000534659
-1.046	0.000535069
-1.0455	0.000535475
-1.045	0.000535885
-1.0445	0.00053629
-1.044	0.000536696
-1.0435	0.000537106
-1.043	0.000537512
-1.0425	0.000537862
-1.042	0.000538208
-1.0415	0.000538554
-1.041	0.0005389
-1.0405	0.000539246
-1.04	0.000539592
-1.0395	0.000539942
-1.039	0.000540288
-1.0385	0.000540634
-1.038	0.00054098
-1.0375	0.000541326
-1.037	0.000541672
-1.0365	0.000542017
-1.036	0.000542368
-1.0355	0.000542714
-1.035	0.00054306
-1.0345	0.000543405
-1.034	0.000543751
-1.0335	0.000544097
-1.033	0.000544447
-1.0325	0.000544815
-1.032	0.000545186
-1.0315	0.000545554
-1.031	0.000545925
-1.0305	0.000546292
-1.03	0.000546664
-1.0295	0.000547031
-1.029	0.000547399
-1.0285	0.00054777
-1.028	0.000548137
-1.0275	0.000548509
-1.027	0.000548876
-1.0265	0.000549248
-1.026	0.000549615
-1.0255	0.000549987
-1.025	0.000550354
-1.0245	0.000550725
-1.024	0.000551093
-1.0235	0.000551464
-1.023	0.000551832
-1.0225	0.000552212
-1.022	0.000552587
-1.0215	0.000552963
-1.021	0.000553343
-1.0205	0.000553719
-1.02	0.000554095
-1.0195	0.000554471
-1.019	0.000554851
-1.0185	0.000555227
-1.018	0.000555603
-1.0175	0.000555983
-1.017	0.000556358
-1.0165	0.000556734
-1.016	0.000557114
-1.0155	0.00055749
-1.015	0.000557866
-1.0145	0.000558242
-1.014	0.000558622
-1.0135	0.000558998
-1.013	0.000559374
-1.0125	0.000559745
-1.012	0.000560112
-1.0115	0.00056048
-1.011	0.000560847
-1.0105	0.000561219
-1.01	0.000561586
-1.0095	0.000561953
-1.009	0.00056232
-1.0085	0.000562692
-1.008	0.000563059
-1.0075	0.000563427
-1.007	0.000563794
-1.0065	0.000564165
-1.006	0.000564533
-1.0055	0.0005649
-1.005	0.000565267
-1.0045	0.000565639
-1.004	0.000566006
-1.0035	0.000566373
-1.003	0.000566741
-1.0025	0.000567108
-1.002	0.000567471
-1.0015	0.000567834
-1.001	0.000568197
-1.0005	0.00056856
-1	0.000568927
-0.9995	0.00056929
-0.999	0.000569653
-0.9985	0.000570016
-0.998	0.000570379
-0.9975	0.000570747
-0.997	0.00057111
-0.9965	0.000571473
-0.996	0.000571836
-0.9955	0.000572199
-0.995	0.000572566
-0.9945	0.000572929
-0.994	0.000573292
-0.9935	0.000573655
-0.993	0.000574018
-0.9925	0.000574389
-0.992	0.000574761
-0.9915	0.000575133
-0.991	0.000575504
-0.9905	0.000575876
-0.99	0.000576247
-0.9895	0.000576619
-0.989	0.00057699
-0.9885	0.000577362
-0.988	0.000577733
-0.9875	0.000578105
-0.987	0.000578477
-0.9865	0.000578848
-0.986	0.00057922
-0.9855	0.000579591
-0.985	0.000579963
-0.9845	0.000580334
-0.984	0.000580702
-0.9835	0.000581073
-0.983	0.000581445
-0.9825	0.000581795
-0.982	0.000582141
-0.9815	0.000582491
-0.981	0.000582837
-0.9805	0.000583187
-0.98	0.000583533
-0.9795	0.000583879
-0.979	0.000584229
-0.9785	0.000584575
-0.978	0.000584925
-0.9775	0.000585271
-0.977	0.000585621
-0.9765	0.000585967
-0.976	0.000586318
-0.9755	0.000586663
-0.975	0.000587014
-0.9745	0.00058736
-0.974	0.000587706
-0.9735	0.000588056
-0.973	0.000588402
-0.9725	0.000588748
-0.972	0.000589094
-0.9715	0.000589435
-0.971	0.000589781
-0.9705	0.000590123
-0.97	0.000590469
-0.9695	0.000590815
-0.969	0.000591156
-0.9685	0.000591502
-0.968	0.000591844
-0.9675	0.00059219
-0.967	0.000592536
-0.9665	0.000592877
-0.966	0.000593223
-0.9655	0.000593565
-0.965	0.000593911
-0.9645	0.000594257
-0.964	0.000594598
-0.9635	0.000594944
-0.963	0.000595286
-0.9625	0.000595658
-0.962	0.000596029
-0.9615	0.000596401
-0.961	0.000596772
-0.9605	0.000597144
-0.96	0.000597515
-0.9595	0.000597887
-0.959	0.000598258
-0.9585	0.000598626
-0.958	0.000598997
-0.9575	0.000599369
-0.957	0.00059974
-0.9565	0.000600112
-0.956	0.000600483
-0.9555	0.000600855
-0.955	0.000601227
-0.9545	0.000601594
-0.954	0.000601965
-0.9535	0.000602337
-0.953	0.000602709
-0.9525	0.000603025
-0.952	0.000603341
-0.9515	0.000603657
-0.951	0.000603973
-0.9505	0.000604289
-0.95	0.000604605
-0.9495	0.000604921
-0.949	0.000605237
-0.9485	0.000605553
-0.948	0.000605869
-0.9475	0.000606185
-0.947	0.000606501
-0.9465	0.000606817
-0.946	0.000607133
-0.9455	0.000607449
-0.945	0.000607765
-0.9445	0.000608081
-0.944	0.000608397
-0.9435	0.000608713
-0.943	0.000609029
-0.9425	0.000609367
-0.942	0.000609704
-0.9415	0.000610037
-0.941	0.000610374
-0.9405	0.000610712
-0.94	0.000611049
-0.9395	0.000611387
-0.939	0.000611724
-0.9385	0.000612061
-0.938	0.000612395
-0.9375	0.000612732
-0.937	0.000613069
-0.9365	0.000613407
-0.936	0.000613744
-0.9355	0.000614081
-0.935	0.000614419
-0.9345	0.000614752
-0.934	0.000615089
-0.9335	0.000615427
-0.933	0.000615764
-0.9325	0.000616084
-0.932	0.000616409
-0.9315	0.000616734
-0.931	0.000617054
-0.9305	0.000617378
-0.93	0.000617699
-0.9295	0.000618023
-0.929	0.000618344
-0.9285	0.000618668
-0.928	0.000618988
-0.9275	0.000619313
-0.927	0.000619633
-0.9265	0.000619958
-0.926	0.000620278
-0.9255	0.000620603
-0.925	0.000620927
-0.9245	0.000621248
-0.924	0.000621572
-0.9235	0.000621893
-0.923	0.000622217
-0.9225	0.000622469
-0.922	0.000622725
-0.9215	0.000622982
-0.921	0.000623238
-0.9205	0.000623494
-0.92	0.000623746
-0.9195	0.000624002
-0.919	0.000624259
-0.9185	0.000624515
-0.918	0.000624767
-0.9175	0.000625023
-0.917	0.000625279
-0.9165	0.000625535
-0.916	0.000625787
-0.9155	0.000626044
-0.915	0.0006263
-0.9145	0.000626556
-0.914	0.000626808
-0.9135	0.000627064
-0.913	0.000627321
-0.9125	0.000627581
-0.912	0.000627837
-0.9115	0.000628098
-0.911	0.000628358
-0.9105	0.000628615
-0.91	0.000628875
-0.9095	0.000629131
-0.909	0.000629392
-0.9085	0.000629652
-0.908	0.000629909
-0.9075	0.000630169
-0.907	0.00063043
-0.9065	0.000630686
-0.906	0.000630946
-0.9055	0.000631207
-0.905	0.000631463
-0.9045	0.000631724
-0.904	0.000631984
-0.9035	0.000632241
-0.903	0.000632501
-0.9025	0.0006328
-0.902	0.000633099
-0.9015	0.000633398
-0.901	0.000633693
-0.9005	0.000633992
-0.9	0.00063429
-0.8995	0.000634589
-0.899	0.000634888
-0.8985	0.000635187
-0.898	0.000635482
-0.8975	0.000635781
-0.897	0.00063608
-0.8965	0.000636379
-0.896	0.000636678
-0.8955	0.000636977
-0.895	0.000637271
-0.8945	0.00063757
-0.894	0.000637869
-0.8935	0.000638168
-0.893	0.000638467
-0.8925	0.000638719
-0.892	0.000638967
-0.8915	0.000639219
-0.891	0.000639471
-0.8905	0.000639723
-0.89	0.00063997
-0.8895	0.000640222
-0.889	0.000640474
-0.8885	0.000640726
-0.888	0.000640974
-0.8875	0.000641226
-0.887	0.000641478
-0.8865	0.00064173
-0.886	0.000641978
-0.8855	0.00064223
-0.885	0.000642482
-0.8845	0.000642734
-0.884	0.000642981
-0.8835	0.000643233
-0.883	0.000643485
-0.8825	0.000643703
-0.882	0.000643921
-0.8815	0.000644139
-0.881	0.000644361
-0.8805	0.000644579
-0.88	0.000644796
-0.8795	0.000645014
-0.879	0.000645232
-0.8785	0.000645454
-0.878	0.000645672
-0.8775	0.00064589
-0.877	0.000646108
-0.8765	0.000646325
-0.876	0.000646547
-0.8755	0.000646765
-0.875	0.000646983
-0.8745	0.000647201
-0.874	0.000647419
-0.8735	0.000647641
-0.873	0.000647859
-0.8725	0.000648059
-0.872	0.00064826
-0.8715	0.000648456
-0.871	0.000648657
-0.8705	0.000648858
-0.87	0.000649059
-0.8695	0.000649259
-0.869	0.00064946
-0.8685	0.000649661
-0.868	0.000649861
-0.8675	0.000650058
-0.867	0.000650259
-0.8665	0.000650459
-0.866	0.00065066
-0.8655	0.000650861
-0.865	0.000651062
-0.8645	0.000651262
-0.864	0.000651463
-0.8635	0.000651659
-0.863	0.00065186
-0.8625	0.00065204
-0.862	0.000652215
-0.8615	0.000652394
-0.861	0.000652573
-0.8605	0.000652748
-0.86	0.000652928
-0.8595	0.000653103
-0.859	0.000653282
-0.8585	0.000653457
-0.858	0.000653637
-0.8575	0.000653816
-0.857	0.000653991
-0.8565	0.000654171
-0.856	0.000654346
-0.8555	0.000654525
-0.855	0.0006547
-0.8545	0.00065488
-0.854	0.000655059
-0.8535	0.000655234
-0.853	0.000655413
-0.8525	0.000655512
-0.852	0.00065561
-0.8515	0.000655708
-0.851	0.000655811
-0.8505	0.000655909
-0.85	0.000656007
-0.8495	0.000656105
-0.849	0.000656208
-0.8485	0.000656306
-0.848	0.000656404
-0.8475	0.000656502
-0.847	0.000656601
-0.8465	0.000656703
-0.846	0.000656801
-0.8455	0.0006569
-0.845	0.000656998
-0.8445	0.0006571
-0.844	0.000657199
-0.8435	0.000657297
-0.843	0.000657395
-0.8425	0.000657455
-0.842	0.00065751
-0.8415	0.00065757
-0.841	0.000657626
-0.8405	0.000657685
-0.84	0.000657745
-0.8395	0.000657801
-0.839	0.000657861
-0.8385	0.000657916
-0.838	0.000657976
-0.8375	0.000658031
-0.837	0.000658091
-0.8365	0.000658147
-0.836	0.000658206
-0.8355	0.000658266
-0.835	0.000658322
-0.8345	0.000658382
-0.834	0.000658437
-0.8335	0.000658497
-0.833	0.000658552
-0.8325	0.000658625
-0.832	0.000658693
-0.8315	0.000658762
-0.831	0.000658834
-0.8305	0.000658903
-0.83	0.000658971
-0.8295	0.000659043
-0.829	0.000659112
-0.8285	0.00065918
-0.828	0.000659248
-0.8275	0.000659321
-0.827	0.000659389
-0.8265	0.000659458
-0.826	0.00065953
-0.8255	0.000659599
-0.825	0.000659667
-0.8245	0.00065974
-0.824	0.000659808
-0.8235	0.000659876
-0.823	0.000659949
-0.8225	0.00065997
-0.822	0.000659992
-0.8215	0.000660013
-0.821	0.000660034
-0.8205	0.000660056
-0.82	0.000660077
-0.8195	0.000660103
-0.819	0.000660124
-0.8185	0.000660145
-0.818	0.000660167
-0.8175	0.000660188
-0.817	0.000660209
-0.8165	0.000660231
-0.816	0.000660252
-0.8155	0.000660273
-0.815	0.000660299
-0.8145	0.00066032
-0.814	0.000660342
-0.8135	0.000660363
-0.813	0.000660384
-0.8125	0.000660308
-0.812	0.000660231
-0.8115	0.000660154
-0.811	0.000660077
-0.8105	0.00066
-0.81	0.000659923
-0.8095	0.000659846
-0.809	0.000659774
-0.8085	0.000659697
-0.808	0.00065962
-0.8075	0.000659543
-0.807	0.000659466
-0.8065	0.000659389
-0.806	0.000659313
-0.8055	0.000659236
-0.805	0.000659159
-0.8045	0.000659082
-0.804	0.000659005
-0.8035	0.000658928
-0.803	0.000658851
-0.8025	0.000658787
-0.802	0.000658719
-0.8015	0.000658655
-0.801	0.000658587
-0.8005	0.000658522
-0.8	0.000658458
-0.7995	0.00065839
-0.799	0.000658326
-0.7985	0.000658258
-0.798	0.000658194
-0.7975	0.000658125
-0.797	0.000658061
-0.7965	0.000657993
-0.796	0.000657929
-0.7955	0.000657865
-0.795	0.000657796
-0.7945	0.000657732
-0.794	0.000657664
-0.7935	0.0006576
-0.793	0.000657532
-0.7925	0.000657352
-0.792	0.000657169
-0.7915	0.000656985
-0.791	0.000656806
-0.7905	0.000656622
-0.79	0.000656438
-0.7895	0.000656259
-0.789	0.000656075
-0.7885	0.000655892
-0.788	0.000655712
-0.7875	0.000655529
-0.787	0.000655345
-0.7865	0.000655166
-0.786	0.000654982
-0.7855	0.000654798
-0.785	0.000654619
-0.7845	0.000654435
-0.784	0.000654252
-0.7835	0.000654072
-0.783	0.000653889
-0.7825	0.000653534
-0.782	0.000653184
-0.7815	0.00065283
-0.781	0.000652479
-0.7805	0.000652125
-0.78	0.00065177
-0.7795	0.00065142
-0.779	0.000651066
-0.7785	0.000650716
-0.778	0.000650361
-0.7775	0.000650011
-0.777	0.000649656
-0.7765	0.000649302
-0.776	0.000648952
-0.7755	0.000648597
-0.775	0.000648247
-0.7745	0.000647893
-0.774	0.000647538
-0.7735	0.000647188
-0.773	0.000646834
-0.7725	0.000646466
-0.772	0.000646103
-0.7715	0.000645736
-0.771	0.000645373
-0.7705	0.000645006
-0.77	0.000644638
-0.7695	0.000644275
-0.769	0.000643908
-0.7685	0.000643541
-0.768	0.000643178
-0.7675	0.000642811
-0.767	0.000642448
-0.7665	0.00064208
-0.766	0.000641713
-0.7655	0.00064135
-0.765	0.000640983
-0.7645	0.000640615
-0.764	0.000640252
-0.7635	0.000639885
-0.763	0.000639522
-0.7625	0.000639236
-0.762	0.000638954
-0.7615	0.000638672
-0.761	0.00063839
-0.7605	0.000638108
-0.76	0.000637822
-0.7595	0.00063754
-0.759	0.000637259
-0.7585	0.000636977
-0.758	0.000636691
-0.7575	0.000636409
-0.757	0.000636127
-0.7565	0.000635845
-0.756	0.000635563
-0.7555	0.000635277
-0.755	0.000634995
-0.7545	0.000634713
-0.754	0.000634431
-0.7535	0.00063415
-0.753	0.000633863
-0.7525	0.000633283
-0.752	0.000632702
-0.7515	0.000632117
-0.751	0.000631536
-0.7505	0.000630951
-0.75	0.00063037
-0.7495	0.000629789
-0.749	0.000629204
-0.7485	0.000628623
-0.748	0.000628038
-0.7475	0.000627457
-0.747	0.000626876
-0.7465	0.000626291
-0.746	0.000625711
-0.7455	0.000625126
-0.745	0.000624545
-0.7445	0.000623964
-0.744	0.000623379
-0.7435	0.000622798
-0.743	0.000622217
-0.7425	0.000621585
-0.742	0.000620953
-0.7415	0.000620325
-0.741	0.000619693
-0.7405	0.000619061
-0.74	0.000618429
-0.7395	0.000617801
-0.739	0.000617169
-0.7385	0.000616537
-0.738	0.000615909
-0.7375	0.000615277
-0.737	0.000614645
-0.7365	0.000614017
-0.736	0.000613385
-0.7355	0.000612753
-0.735	0.000612125
-0.7345	0.000611493
-0.734	0.000610861
-0.7335	0.000610234
-0.733	0.000609601
-0.7325	0.000608863
-0.732	0.00060812
-0.7315	0.000607381
-0.731	0.000606642
-0.7305	0.000605903
-0.73	0.00060516
-0.7295	0.000604421
-0.729	0.000603682
-0.7285	0.000602943
-0.728	0.0006022
-0.7275	0.000601461
-0.727	0.000600723
-0.7265	0.000599984
-0.726	0.000599241
-0.7255	0.000598502
-0.725	0.000597763
-0.7245	0.00059702
-0.724	0.000596281
-0.7235	0.000595542
-0.723	0.000594803
-0.7225	0.000593932
-0.722	0.000593061
-0.7215	0.000592194
-0.721	0.000591323
-0.7205	0.000590452
-0.72	0.000589585
-0.7195	0.000588713
-0.719	0.000587842
-0.7185	0.000586975
-0.718	0.000586104
-0.7175	0.000585233
-0.717	0.000584366
-0.7165	0.000583495
-0.716	0.000582623
-0.7155	0.000581756
-0.715	0.000580885
-0.7145	0.000580014
-0.714	0.000579147
-0.7135	0.000578276
-0.713	0.000577405
-0.7125	0.000576495
-0.712	0.000575581
-0.7115	0.000574671
-0.711	0.000573757
-0.7105	0.000572848
-0.71	0.000571934
-0.7095	0.000571024
-0.709	0.00057011
-0.7085	0.000569201
-0.708	0.000568287
-0.7075	0.000567377
-0.707	0.000566463
-0.7065	0.000565553
-0.706	0.000564639
-0.7055	0.00056373
-0.705	0.000562816
-0.7045	0.000561906
-0.704	0.000560992
-0.7035	0.000560083
-0.703	0.000559169
-0.7025	0.000558156
-0.702	0.00055714
-0.7015	0.000556128
-0.701	0.000555111
-0.7005	0.000554099
-0.7	0.000553083
-0.6995	0.000552071
-0.699	0.000551054
-0.6985	0.000550042
-0.698	0.000549026
-0.6975	0.000548014
-0.697	0.000546997
-0.6965	0.000545985
-0.696	0.000544969
-0.6955	0.000543956
-0.695	0.00054294
-0.6945	0.000541928
-0.694	0.000540911
-0.6935	0.000539899
-0.693	0.000538883
-0.6925	0.000537495
-0.692	0.000536107
-0.6915	0.000534719
-0.691	0.000533331
-0.6905	0.000531943
-0.69	0.000530555
-0.6895	0.000529167
-0.689	0.000527779
-0.6885	0.000526387
-0.688	0.000524999
-0.6875	0.000523611
-0.687	0.000522223
-0.6865	0.000520835
-0.686	0.000519447
-0.6855	0.000518059
-0.685	0.000516671
-0.6845	0.000515283
-0.684	0.000513895
-0.6835	0.000512507
-0.683	0.000511119
-0.6825	0.000509624
-0.682	0.000508129
-0.6815	0.000506635
-0.681	0.00050514
-0.6805	0.000503645
-0.68	0.00050215
-0.6795	0.000500656
-0.679	0.000499161
-0.6785	0.000497666
-0.678	0.000496176
-0.6775	0.000494681
-0.677	0.000493186
-0.6765	0.000491691
-0.676	0.000490197
-0.6755	0.000488702
-0.675	0.000487207
-0.6745	0.000485712
-0.674	0.000484218
-0.6735	0.000482723
-0.673	0.000481232
-0.6725	0.000479409
-0.672	0.000477589
-0.6715	0.000475766
-0.671	0.000473942
-0.6705	0.000472123
-0.67	0.000470299
-0.6695	0.00046848
-0.669	0.000466656
-0.6685	0.000464837
-0.668	0.000463014
-0.6675	0.000461194
-0.667	0.000459371
-0.6665	0.000457551
-0.666	0.000455728
-0.6655	0.000453908
-0.665	0.000452085
-0.6645	0.000450265
-0.664	0.000448442
-0.6635	0.000446623
-0.663	0.000444799
-0.6625	0.000442783
-0.662	0.000440767
-0.6615	0.000438747
-0.661	0.000436732
-0.6605	0.000434716
-0.66	0.000432696
-0.6595	0.00043068
-0.659	0.000428664
-0.6585	0.000426645
-0.658	0.000424628
-0.6575	0.000422611
-0.657	0.000420593
-0.6565	0.000418576
-0.656	0.000416559
-0.6555	0.000414542
-0.655	0.000412525
-0.6545	0.000410508
-0.654	0.00040849
-0.6535	0.000406473
-0.653	0.000404456
-0.6525	0.000402476
-0.652	0.000400497
-0.6515	0.000398517
-0.651	0.000396537
-0.6505	0.000394557
-0.65	0.000392578
-0.6495	0.000390598
-0.649	0.000388619
-0.6485	0.000386639
-0.648	0.000384659
-0.6475	0.000382679
-0.647	0.0003807
-0.6465	0.00037872
-0.646	0.00037674
-0.6455	0.000374761
-0.645	0.000372781
-0.6445	0.000370801
-0.644	0.000368822
-0.6435	0.000366842
-0.643	0.000364862
-0.6425	0.000362323
-0.642	0.000359783
-0.6415	0.000357243
-0.641	0.000354703
-0.6405	0.000352163
-0.64	0.000349624
-0.6395	0.000347084
-0.639	0.000344544
-0.6385	0.000342004
-0.638	0.000339464
-0.6375	0.000336925
-0.637	0.000334385
-0.6365	0.000331845
-0.636	0.000329305
-0.6355	0.000326765
-0.635	0.000324226
-0.6345	0.000321686
-0.634	0.000319146
-0.6335	0.000316606
-0.633	0.000314066
-0.6325	0.000310955
-0.632	0.000307843
-0.6315	0.000304731
-0.631	0.00030162
-0.6305	0.000298508
-0.63	0.000295396
-0.6295	0.000292284
-0.629	0.000289173
-0.6285	0.000286061
-0.628	0.000282949
-0.6275	0.000279837
-0.627	0.000276726
-0.6265	0.000273614
-0.626	0.000270502
-0.6255	0.00026739
-0.625	0.000264279
-0.6245	0.000261167
-0.624	0.000258055
-0.6235	0.000254943
-0.623	0.000251832
-0.6225	0.000248452
-0.622	0.000245073
-0.6215	0.000241693
-0.621	0.000238313
-0.6205	0.000234934
-0.62	0.000231555
-0.6195	0.000228175
-0.619	0.000224795
-0.6185	0.000221416
-0.618	0.000218037
-0.6175	0.000214657
-0.617	0.000211278
-0.6165	0.000207898
-0.616	0.000204518
-0.6155	0.000201139
-0.615	0.00019776
-0.6145	0.00019438
-0.614	0.000191
-0.6135	0.000187621
-0.613	0.000184242
-0.6125	0.000181283
-0.612	0.000178324
-0.6115	0.000175365
-0.611	0.000172406
-0.6105	0.000169447
-0.61	0.000166489
-0.6095	0.000163529
-0.609	0.000160571
-0.6085	0.000157612
-0.608	0.000154653
-0.6075	0.000151694
-0.607	0.000148735
-0.6065	0.000145777
-0.606	0.000142818
-0.6055	0.000139859
-0.605	0.0001369
-0.6045	0.000133941
-0.604	0.000130982
-0.6035	0.000128024
-0.603	0.000125065
-0.6025	0.000120584
-0.602	0.000116104
-0.6015	0.000111624
-0.601	0.000107143
-0.6005	0.000102663
-0.6	9.81824E-05
-0.5995	0.000093702
-0.599	8.92216E-05
-0.5985	8.47412E-05
-0.598	8.02608E-05
-0.5975	7.57804E-05
-0.597	0.0000713
-0.5965	6.68196E-05
-0.596	6.23392E-05
-0.5955	5.78588E-05
-0.595	5.33783E-05
-0.5945	4.88979E-05
-0.594	4.44175E-05
-0.5935	0.000039937
-0.593	3.54567E-05
-0.5925	3.08259E-05
-0.592	2.61952E-05
-0.5915	2.15644E-05
-0.591	1.69337E-05
-0.5905	1.23029E-05
-0.59	7.67216E-06
-0.5895	3.04139E-06
-0.589	-1.58936E-06
-0.5885	-6.22012E-06
-0.588	-1.08509E-05
-0.5875	-1.54816E-05
-0.587	-2.01124E-05
-0.5865	-2.47431E-05
-0.586	-2.93739E-05
-0.5855	-3.40046E-05
-0.585	-3.86354E-05
-0.5845	-4.32662E-05
-0.584	-4.78969E-05
-0.5835	-5.25276E-05
-0.583	-5.71584E-05
-0.5825	-6.20663E-05
-0.582	-6.69737E-05
-0.5815	-7.18812E-05
-0.581	-7.67891E-05
-0.5805	-8.16966E-05
-0.58	-8.66045E-05
-0.5795	-0.000091512
-0.579	-9.64199E-05
-0.5785	-0.000101327
-0.578	-0.000106235
-0.5775	-0.000111143
-0.577	-0.00011605
-0.5765	-0.000120958
-0.576	-0.000125866
-0.5755	-0.000130774
-0.575	-0.000135681
-0.5745	-0.000140588
-0.574	-0.000145496
-0.5735	-0.000150404
-0.573	-0.000155312
-0.5725	-0.000161116
-0.572	-0.00016692
-0.5715	-0.000172725
-0.571	-0.000178529
-0.5705	-0.000184334
-0.57	-0.000190138
-0.5695	-0.000195942
-0.569	-0.000201747
-0.5685	-0.000207551
-0.568	-0.000213356
-0.5675	-0.00021916
-0.567	-0.000224964
-0.5665	-0.000230769
-0.566	-0.000236573
-0.5655	-0.000242378
-0.565	-0.000248182
-0.5645	-0.000253987
-0.564	-0.000259791
-0.5635	-0.000265595
-0.563	-0.0002714
-0.5625	-0.000277507
-0.562	-0.000283615
-0.5615	-0.000289723
-0.561	-0.000295831
-0.5605	-0.000301939
-0.56	-0.000308047
-0.5595	-0.000314155
-0.559	-0.000320263
-0.5585	-0.000326371
-0.558	-0.000332479
-0.5575	-0.000338587
-0.557	-0.000344695
-0.5565	-0.000350803
-0.556	-0.00035691
-0.5555	-0.000363018
-0.555	-0.000369126
-0.5545	-0.000375234
-0.554	-0.000381342
-0.5535	-0.00038745
-0.553	-0.000393558
-0.5525	-0.00040082
-0.552	-0.000408082
-0.5515	-0.000415344
-0.551	-0.000422606
-0.5505	-0.000429869
-0.55	-0.000437129
-0.5495	-0.000444393
-0.549	-0.000451653
-0.5485	-0.000458918
-0.548	-0.000466178
-0.5475	-0.000473443
-0.547	-0.000480703
-0.5465	-0.000487967
-0.546	-0.000495228
-0.5455	-0.000502488
-0.545	-0.000509752
-0.5445	-0.000517012
-0.544	-0.000524277
-0.5435	-0.000531537
-0.543	-0.000538802
-0.5425	-0.000546186
-0.542	-0.000553574
-0.5415	-0.000560962
-0.541	-0.000568346
-0.5405	-0.000575735
-0.54	-0.000583123
-0.5395	-0.000590511
-0.539	-0.000597895
-0.5385	-0.000605284
-0.538	-0.000612672
-0.5375	-0.000620056
-0.537	-0.000627444
-0.5365	-0.000634833
-0.536	-0.000642221
-0.5355	-0.000649605
-0.535	-0.000656994
-0.5345	-0.000664382
-0.534	-0.000671766
-0.5335	-0.000679154
-0.533	-0.000686543
-0.5325	-0.000695648
-0.532	-0.000704757
-0.5315	-0.000713867
-0.531	-0.000722972
-0.5305	-0.000732081
-0.53	-0.000741186
-0.5295	-0.000750296
-0.529	-0.000759401
-0.5285	-0.00076851
-0.528	-0.000777616
-0.5275	-0.000786725
-0.527	-0.000795834
-0.5265	-0.00080494
-0.526	-0.000814049
-0.5255	-0.000823154
-0.525	-0.000832264
-0.5245	-0.000841369
-0.524	-0.000850478
-0.5235	-0.000859583
-0.523	-0.000868693
-0.5225	-0.000877687
-0.522	-0.000886681
-0.5215	-0.000895675
-0.521	-0.000904665
-0.5205	-0.000913659
-0.52	-0.000922653
-0.5195	-0.000931647
-0.519	-0.000940641
-0.5185	-0.000949636
-0.518	-0.000958625
-0.5175	-0.00096762
-0.517	-0.000976614
-0.5165	-0.000985608
-0.516	-0.000994602
-0.5155	-0.001003596
-0.515	-0.00101259
-0.5145	-0.00102158
-0.514	-0.001030574
-0.5135	-0.001039568
-0.513	-0.001048562
-0.5125	-0.001059512
-0.512	-0.001070467
-0.5115	-0.001081417
-0.511	-0.001092371
-0.5105	-0.001103321
-0.51	-0.001114271
-0.5095	-0.001125226
-0.509	-0.001136176
-0.5085	-0.00114713
-0.508	-0.00115808
-0.5075	-0.001169035
-0.507	-0.001179985
-0.5065	-0.001190935
-0.506	-0.001201889
-0.5055	-0.00121284
-0.505	-0.001223794
-0.5045	-0.001234744
-0.504	-0.001245694
-0.5035	-0.001256648
-0.503	-0.001267599
-0.5025	-0.001279774
-0.502	-0.001291954
-0.5015	-0.00130413
-0.501	-0.001316306
-0.5005	-0.001328482
-0.5	-0.001340658
-0.4995	-0.001352833
-0.499	-0.001365009
-0.4985	-0.001377185
-0.498	-0.001389361
-0.4975	-0.001401537
-0.497	-0.001413717
-0.4965	-0.001425893
-0.496	-0.001438068
-0.4955	-0.001450244
-0.495	-0.00146242
-0.4945	-0.001474596
-0.494	-0.001486772
-0.4935	-0.001498947
-0.493	-0.001511123
-0.4925	-0.001524879
-0.492	-0.001538635
-0.4915	-0.001552391
-0.491	-0.001566143
-0.4905	-0.001579899
-0.49	-0.001593655
-0.4895	-0.001607411
-0.489	-0.001621162
-0.4885	-0.001634918
-0.488	-0.001648674
-0.4875	-0.00166243
-0.487	-0.001676182
-0.4865	-0.001689938
-0.486	-0.001703694
-0.4855	-0.00171745
-0.485	-0.001731201
-0.4845	-0.001744957
-0.484	-0.001758713
-0.4835	-0.001772469
-0.483	-0.001786221
-0.4825	-0.001801258
-0.482	-0.001816291
-0.4815	-0.001831324
-0.481	-0.001846361
-0.4805	-0.001861394
-0.48	-0.001876427
-0.4795	-0.001891464
-0.479	-0.001906497
-0.4785	-0.00192153
-0.478	-0.001936567
-0.4775	-0.0019516
-0.477	-0.001966633
-0.4765	-0.00198167
-0.476	-0.001996703
-0.4755	-0.002011736
-0.475	-0.002026769
-0.4745	-0.002041806
-0.474	-0.002056839
-0.4735	-0.002071872
-0.473	-0.002086909
-0.4725	-0.002102548
-0.472	-0.002118188
-0.4715	-0.002133823
-0.471	-0.002149462
-0.4705	-0.002165102
-0.47	-0.002180741
-0.4695	-0.00219638
-0.469	-0.00221202
-0.4685	-0.002227659
-0.468	-0.002243298
-0.4675	-0.002258938
-0.467	-0.002274573
-0.4665	-0.002290212
-0.466	-0.002305851
-0.4655	-0.002321491
-0.465	-0.00233713
-0.4645	-0.002352769
-0.464	-0.002368409
-0.4635	-0.002384048
-0.463	-0.002399687
-0.4625	-0.002419738
-0.462	-0.002439789
-0.4615	-0.002459845
-0.461	-0.002479896
-0.4605	-0.002499947
-0.46	-0.002520002
-0.4595	-0.002540053
-0.459	-0.002560104
-0.4585	-0.002580159
-0.458	-0.00260021
-0.4575	-0.002620261
-0.457	-0.002640316
-0.4565	-0.002660367
-0.456	-0.002680418
-0.4555	-0.002700474
-0.455	-0.002720525
-0.4545	-0.002740576
-0.454	-0.002760631
-0.4535	-0.002780682
-0.453	-0.002800733
-0.4525	-0.002820455
-0.452	-0.002840177
-0.4515	-0.002859899
-0.451	-0.002879621
-0.4505	-0.002899344
-0.45	-0.002919066
-0.4495	-0.002938788
-0.449	-0.00295851
-0.4485	-0.002978232
-0.448	-0.002997954
-0.4475	-0.003017677
-0.447	-0.003037399
-0.4465	-0.003057121
-0.446	-0.003076843
-0.4455	-0.003096565
-0.445	-0.003116287
-0.4445	-0.003136009
-0.444	-0.003155732
-0.4435	-0.003175454
-0.443	-0.003195176
-0.4425	-0.003219579
-0.442	-0.003243986
-0.4415	-0.003268389
-0.441	-0.003292792
-0.4405	-0.003317194
-0.44	-0.003341597
-0.4395	-0.003366004
-0.439	-0.003390407
-0.4385	-0.00341481
-0.438	-0.003439213
-0.4375	-0.003463616
-0.437	-0.003488023
-0.4365	-0.003512426
-0.436	-0.003536829
-0.4355	-0.003561231
-0.435	-0.003585634
-0.4345	-0.003610041
-0.434	-0.003634444
-0.4335	-0.003658847
-0.433	-0.00368325
-0.4325	-0.003708562
-0.432	-0.003733879
-0.4315	-0.003759192
-0.431	-0.003784504
-0.4305	-0.003809817
-0.43	-0.003835129
-0.4295	-0.003860446
-0.429	-0.003885759
-0.4285	-0.003911071
-0.428	-0.003936384
-0.4275	-0.003961696
-0.427	-0.003987013
-0.4265	-0.004012325
-0.426	-0.004037638
-0.4255	-0.00406295
-0.425	-0.004088263
-0.4245	-0.00411358
-0.424	-0.004138892
-0.4235	-0.004164205
-0.423	-0.004189517
-0.4225	-0.004219399
-0.422	-0.004249277
-0.4215	-0.004279168
-0.421	-0.00430902
-0.4205	-0.004338915
-0.42	-0.00436881
-0.4195	-0.004398662
-0.419	-0.004428557
-0.4185	-0.004458452
-0.418	-0.004488305
-0.4175	-0.0045182
-0.417	-0.004548095
-0.4165	-0.004577947
-0.416	-0.004607842
-0.4155	-0.004637737
-0.415	-0.004667589
-0.4145	-0.004697484
-0.414	-0.004727379
-0.4135	-0.004757231
-0.413	-0.004787126
-0.4125	-0.004818046
-0.412	-0.004848966
-0.4115	-0.004879886
-0.411	-0.004910764
-0.4105	-0.004941683
-0.41	-0.004972603
-0.4095	-0.005003523
-0.409	-0.005034443
-0.4085	-0.005065363
-0.408	-0.005096283
-0.4075	-0.00512716
-0.407	-0.00515808
-0.4065	-0.005189
-0.406	-0.00521992
-0.4055	-0.00525084
-0.405	-0.00528176
-0.4045	-0.005312638
-0.404	-0.005343557
-0.4035	-0.005374477
-0.403	-0.005405397
-0.4025	-0.005443535
-0.402	-0.005481672
-0.4015	-0.00551981
-0.401	-0.005557947
-0.4005	-0.005596085
-0.4	-0.005634222
-0.3995	-0.00567236
-0.399	-0.005710497
-0.3985	-0.005748677
-0.398	-0.005786815
-0.3975	-0.005824952
-0.397	-0.00586309
-0.3965	-0.005901227
-0.396	-0.005939364
-0.3955	-0.005977502
-0.395	-0.006015639
-0.3945	-0.006053777
-0.394	-0.006091914
-0.3935	-0.006130052
-0.393	-0.006168189
-0.3925	-0.006210128
-0.392	-0.006252066
-0.3915	-0.006293962
-0.391	-0.0063359
-0.3905	-0.006377838
-0.39	-0.006419777
-0.3895	-0.006461673
-0.389	-0.006503611
-0.3885	-0.006545549
-0.388	-0.006587445
-0.3875	-0.006629383
-0.387	-0.006671322
-0.3865	-0.006713217
-0.386	-0.006755156
-0.3855	-0.006797094
-0.385	-0.006839033
-0.3845	-0.006880928
-0.384	-0.006922867
-0.3835	-0.006964805
-0.383	-0.007006701
-0.3825	-0.007051928
-0.382	-0.007097154
-0.3815	-0.007142381
-0.381	-0.007187608
-0.3805	-0.007232835
-0.38	-0.007278062
-0.3795	-0.007323289
-0.379	-0.007368473
-0.3785	-0.0074137
-0.378	-0.007458926
-0.3775	-0.007504153
-0.377	-0.00754938
-0.3765	-0.007594607
-0.376	-0.007639834
-0.3755	-0.007685061
-0.375	-0.007730245
-0.3745	-0.007775472
-0.374	-0.007820698
-0.3735	-0.007865925
-0.373	-0.007911152
-0.3725	-0.007962742
-0.372	-0.00801429
-0.3715	-0.00806588
-0.371	-0.00811747
-0.3705	-0.00816906
-0.37	-0.008220608
-0.3695	-0.008272198
-0.369	-0.008323788
-0.3685	-0.008375336
-0.368	-0.008426926
-0.3675	-0.008478516
-0.367	-0.008530106
-0.3665	-0.008581654
-0.366	-0.008633244
-0.3655	-0.008684834
-0.365	-0.008736382
-0.3645	-0.008787972
-0.364	-0.008839562
-0.3635	-0.00889111
-0.363	-0.0089427
-0.3625	-0.009001422
-0.362	-0.009060102
-0.3615	-0.009118781
-0.361	-0.009177504
-0.3605	-0.009236183
-0.36	-0.009294906
-0.3595	-0.009353585
-0.359	-0.009412307
-0.3585	-0.009470987
-0.358	-0.009529667
-0.3575	-0.009588389
-0.357	-0.009647068
-0.3565	-0.009705791
-0.356	-0.00976447
-0.3555	-0.00982315
-0.355	-0.009881872
-0.3545	-0.009940552
-0.354	-0.009999274
-0.3535	-0.010057954
-0.353	-0.010116633
-0.3525	-0.010184025
-0.352	-0.010251417
-0.3515	-0.010318809
-0.351	-0.010386201
-0.3505	-0.010453592
-0.35	-0.010521027
-0.3495	-0.010588419
-0.349	-0.010655811
-0.3485	-0.010723202
-0.348	-0.010790594
-0.3475	-0.010857986
-0.347	-0.010925378
-0.3465	-0.01099277
-0.346	-0.011060162
-0.3455	-0.011127553
-0.345	-0.011194945
-0.3445	-0.011262337
-0.344	-0.011329729
-0.3435	-0.011397121
-0.343	-0.011464513
-0.3425	-0.011535364
-0.342	-0.011606215
-0.3415	-0.011677109
-0.341	-0.01174796
-0.3405	-0.011818811
-0.34	-0.011889705
-0.3395	-0.011960556
-0.339	-0.012031407
-0.3385	-0.012102258
-0.338	-0.012173152
-0.3375	-0.012244003
-0.337	-0.012314854
-0.3365	-0.012385748
-0.336	-0.012456599
-0.3355	-0.01252745
-0.335	-0.012598344
-0.3345	-0.012669195
-0.334	-0.012740046
-0.3335	-0.01281094
-0.333	-0.012881791
-0.3325	-0.012965155
-0.332	-0.013048562
-0.3315	-0.013131969
-0.331	-0.013215334
-0.3305	-0.013298741
-0.33	-0.013382105
-0.3295	-0.013465512
-0.329	-0.013548876
-0.3285	-0.013632283
-0.328	-0.01371569
-0.3275	-0.013799055
-0.327	-0.013882462
-0.3265	-0.013965826
-0.326	-0.014049233
-0.3255	-0.014132597
-0.325	-0.014216004
-0.3245	-0.014299411
-0.324	-0.014382775
-0.3235	-0.014466182
-0.323	-0.014549547
-0.3225	-0.014642563
-0.322	-0.014735536
-0.3215	-0.014828552
-0.321	-0.014921526
-0.3205	-0.015014542
-0.32	-0.015107515
-0.3195	-0.015200531
-0.319	-0.015293505
-0.3185	-0.015386521
-0.318	-0.015479494
-0.3175	-0.01557251
-0.317	-0.015665484
-0.3165	-0.0157585
-0.316	-0.015851473
-0.3155	-0.015944489
-0.315	-0.016037463
-0.3145	-0.016130479
-0.314	-0.016223452
-0.3135	-0.016316468
-0.313	-0.016409442
-0.3125	-0.016514031
-0.312	-0.016618579
-0.3115	-0.016723126
-0.311	-0.016827715
-0.3105	-0.016932262
-0.31	-0.017036852
-0.3095	-0.017141399
-0.309	-0.017245989
-0.3085	-0.017350536
-0.308	-0.017455126
-0.3075	-0.017559673
-0.307	-0.017664262
-0.3065	-0.017768809
-0.306	-0.017873356
-0.3055	-0.017977946
-0.305	-0.018082493
-0.3045	-0.018187083
-0.304	-0.01829163
-0.3035	-0.01839622
-0.303	-0.018500767
-0.3025	-0.018620774
-0.302	-0.018740781
-0.3015	-0.018860745
-0.301	-0.018980752
-0.3005	-0.019100759
-0.3	-0.019220766
-0.2995	-0.019340773
-0.299	-0.019460737
-0.2985	-0.019580744
-0.298	-0.019700751
-0.2975	-0.019820758
-0.297	-0.019940723
-0.2965	-0.02006073
-0.296	-0.020180737
-0.2955	-0.020300744
-0.295	-0.020420751
-0.2945	-0.020540715
-0.294	-0.020660722
-0.2935	-0.020780729
-0.293	-0.020900736
-0.2925	-0.021043506
-0.292	-0.021186318
-0.2915	-0.021329131
-0.291	-0.021471901
-0.2905	-0.021614714
-0.29	-0.021757526
-0.2895	-0.021900339
-0.289	-0.022043109
-0.2885	-0.022185921
-0.288	-0.022328734
-0.2875	-0.022471504
-0.287	-0.022614316
-0.2865	-0.022757129
-0.286	-0.022899899
-0.2855	-0.023042711
-0.285	-0.023185524
-0.2845	-0.023328337
-0.284	-0.023471107
-0.2835	-0.023613919
-0.283	-0.023756732
-0.2825	-0.023908726
-0.282	-0.024060721
-0.2815	-0.024212716
-0.281	-0.02436471
-0.2805	-0.024516705
-0.28	-0.024668657
-0.2795	-0.024820652
-0.279	-0.024972646
-0.2785	-0.025124641
-0.278	-0.025276635
-0.2775	-0.02542863
-0.277	-0.025580625
-0.2765	-0.025732619
-0.276	-0.025884614
-0.2755	-0.026036609
-0.275	-0.026188603
-0.2745	-0.026340598
-0.274	-0.026492593
-0.2735	-0.026644587
-0.273	-0.026796582
-0.2725	-0.026976421
-0.272	-0.027156261
-0.2715	-0.027336058
-0.271	-0.027515898
-0.2705	-0.027695737
-0.27	-0.027875577
-0.2695	-0.028055417
-0.269	-0.028235256
-0.2685	-0.028415053
-0.268	-0.028594893
-0.2675	-0.028774733
-0.267	-0.028954572
-0.2665	-0.029134412
-0.266	-0.029314209
-0.2655	-0.029494049
-0.265	-0.029673888
-0.2645	-0.029853728
-0.264	-0.030033568
-0.2635	-0.030213365
-0.263	-0.030393204
-0.2625	-0.030593544
-0.262	-0.03079384
-0.2615	-0.030994136
-0.261	-0.031194475
-0.2605	-0.031394772
-0.26	-0.031595111
-0.2595	-0.031795407
-0.259	-0.031995704
-0.2585	-0.032196043
-0.258	-0.032396339
-0.2575	-0.032596678
-0.257	-0.032796975
-0.2565	-0.032997271
-0.256	-0.03319761
-0.2555	-0.033397907
-0.255	-0.033598246
-0.2545	-0.033798542
-0.254	-0.033998838
-0.2535	-0.034199178
-0.253	-0.034399474
-0.2525	-0.034622362
-0.252	-0.034845251
-0.2515	-0.035068139
-0.251	-0.035291028
-0.2505	-0.035513916
-0.25	-0.035736805
-0.2495	-0.035959693
-0.249	-0.036182582
-0.2485	-0.03640547
-0.248	-0.036628358
-0.2475	-0.036851247
-0.247	-0.037074135
-0.2465	-0.037297024
-0.246	-0.037519912
-0.2455	-0.037742801
-0.245	-0.037965689
-0.2445	-0.038188578
-0.244	-0.038411466
-0.2435	-0.038634355
-0.243	-0.038857243
-0.2425	-0.039121643
-0.242	-0.039386085
-0.2415	-0.039650528
-0.241	-0.03991497
-0.2405	-0.040179413
-0.24	-0.040443855
-0.2395	-0.040708298
-0.239	-0.04097274
-0.2385	-0.041237183
-0.238	-0.041501625
-0.2375	-0.041766068
-0.237	-0.042030467
-0.2365	-0.04229491
-0.236	-0.042559352
-0.2355	-0.042823709
-0.235	-0.043088066
-0.2345	-0.043352851
-0.234	-0.043617208
-0.2335	-0.043881565
-0.233	-0.044145922
-0.2325	-0.044452132
-0.232	-0.044758342
-0.2315	-0.045064552
-0.231	-0.045370762
-0.2305	-0.045676972
-0.23	-0.045983182
-0.2295	-0.046289392
-0.229	-0.046595602
-0.2285	-0.046901812
-0.228	-0.047208022
-0.2275	-0.047514232
-0.227	-0.047820442
-0.2265	-0.048126652
-0.226	-0.048432862
-0.2255	-0.048739072
-0.225	-0.049045282
-0.2245	-0.049351492
-0.224	-0.049657702
-0.2235	-0.049963913
-0.223	-0.050270123
-0.2225	-0.050618186
-0.222	-0.050965822
-0.2215	-0.051313885
-0.221	-0.051661521
-0.2205	-0.052009584
-0.22	-0.052357219
-0.2195	-0.052705282
-0.219	-0.053052918
-0.2185	-0.053400981
-0.218	-0.053748617
-0.2175	-0.05409668
-0.217	-0.054444316
-0.2165	-0.054792379
-0.216	-0.055140015
-0.2155	-0.055488078
-0.215	-0.055835714
-0.2145	-0.056183777
-0.214	-0.056531413
-0.2135	-0.056879476
-0.213	-0.057227112
-0.2125	-0.057633684
-0.212	-0.058040256
-0.2115	-0.058446828
-0.211	-0.058853399
-0.2105	-0.059259544
-0.21	-0.059666116
-0.2095	-0.060072688
-0.209	-0.060479259
-0.2085	-0.060885831
-0.208	-0.061292403
-0.2075	-0.061698548
-0.207	-0.062105119
-0.2065	-0.062511691
-0.206	-0.062918263
-0.2055	-0.063324835
-0.205	-0.063731406
-0.2045	-0.064137551
-0.204	-0.064544123
-0.2035	-0.064950695
-0.203	-0.065357266
-0.2025	-0.065795869
-0.202	-0.066234471
-0.2015	-0.066673073
-0.201	-0.067111675
-0.2005	-0.06754985
-0.2	-0.067988452
-0.1995	-0.068427054
-0.199	-0.068865656
-0.1985	-0.069304258
-0.198	-0.06974286
-0.1975	-0.070181463
-0.197	-0.070620065
-0.1965	-0.071058667
-0.196	-0.071497269
-0.1955	-0.071935871
-0.195	-0.072374473
-0.1945	-0.072812648
-0.194	-0.07325125
-0.1935	-0.073689852
-0.193	-0.074128455
-0.1925	-0.074693043
-0.192	-0.075257631
-0.1915	-0.075822219
-0.191	-0.076386807
-0.1905	-0.076950968
-0.19	-0.077515556
-0.1895	-0.078080144
-0.189	-0.078644732
-0.1885	-0.07920932
-0.188	-0.079773909
-0.1875	-0.080338497
-0.187	-0.080902658
-0.1865	-0.081467246
-0.186	-0.082031834
-0.1855	-0.082596422
-0.185	-0.08316101
-0.1845	-0.083725598
-0.184	-0.084290186
-0.1835	-0.084854347
-0.183	-0.085418936
-0.1825	-0.086071073
-0.182	-0.086723211
-0.1815	-0.087375349
-0.181	-0.088027486
-0.1805	-0.088679624
-0.18	-0.089331335
-0.1795	-0.089983472
-0.179	-0.09063561
-0.1785	-0.091287748
-0.178	-0.091939886
-0.1775	-0.092592023
-0.177	-0.093244161
-0.1765	-0.093895872
-0.176	-0.094548009
-0.1755	-0.095200147
-0.175	-0.095852285
-0.1745	-0.096504422
-0.174	-0.09715656
-0.1735	-0.097808698
-0.173	-0.098460408
-0.1725	-0.099203939
-0.172	-0.09994747
-0.1715	-0.100691001
-0.171	-0.101434532
-0.1705	-0.102178063
-0.17	-0.102921594
-0.1695	-0.103665125
-0.169	-0.104408656
-0.1685	-0.105152187
-0.168	-0.105895718
-0.1675	-0.106639249
-0.167	-0.10738278
-0.1665	-0.108126311
-0.166	-0.108869842
-0.1655	-0.109613373
-0.165	-0.110356903
-0.1645	-0.111100434
-0.164	-0.111843965
-0.1635	-0.112587496
-0.163	-0.113331027
-0.1625	-0.114271865
-0.162	-0.115212276
-0.1615	-0.116153114
-0.161	-0.117093524
-0.1605	-0.118034362
-0.16	-0.118974773
-0.1595	-0.119915184
-0.159	-0.120856022
-0.1585	-0.121796432
-0.158	-0.12273727
-0.1575	-0.123677681
-0.157	-0.124618519
-0.1565	-0.125558929
-0.156	-0.126499767
-0.1555	-0.127440178
-0.155	-0.128381016
-0.1545	-0.129321427
-0.154	-0.130262264
-0.1535	-0.131202675
-0.153	-0.132143513
-0.1525	-0.133186848
-0.152	-0.134230183
-0.1515	-0.135273518
-0.151	-0.136316853
-0.1505	-0.137360188
-0.15	-0.138403523
-0.1495	-0.139446857
-0.149	-0.140490192
-0.1485	-0.141533527
-0.148	-0.142576862
-0.1475	-0.143620624
-0.147	-0.144663959
-0.1465	-0.145707294
-0.146	-0.146750629
-0.1455	-0.147793964
-0.145	-0.148837299
-0.1445	-0.149880634
-0.144	-0.150923969
-0.1435	-0.151967303
-0.143	-0.153010638
-0.1425	-0.154378974
-0.142	-0.155746883
-0.1415	-0.157114793
-0.141	-0.158482702
-0.1405	-0.159850611
-0.14	-0.16121852
-0.1395	-0.162586429
-0.139	-0.163954338
-0.1385	-0.165322247
-0.138	-0.166690583
-0.1375	-0.168058492
-0.137	-0.169426401
-0.1365	-0.17079431
-0.136	-0.172162219
-0.1355	-0.173530128
-0.135	-0.174898037
-0.1345	-0.176265946
-0.134	-0.177634282
-0.1335	-0.179002191
-0.133	-0.1803701
-0.1325	-0.18210828
-0.132	-0.183846032
-0.1315	-0.185584212
-0.131	-0.187322392
-0.1305	-0.189060144
-0.13	-0.190798324
-0.1295	-0.192536504
-0.129	-0.194274684
-0.1285	-0.196012436
-0.128	-0.197750616
-0.1275	-0.199488796
-0.127	-0.201226976
-0.1265	-0.202964728
-0.126	-0.204702908
-0.1255	-0.206441088
-0.125	-0.20817884
-0.1245	-0.20991702
-0.124	-0.2116552
-0.1235	-0.21339338
-0.123	-0.215131132
-0.1225	-0.216869739
-0.122	-0.218608346
-0.1215	-0.220346953
-0.121	-0.222085559
-0.1205	-0.223824166
-0.12	-0.225562773
-0.1195	-0.22730138
-0.119	-0.229039987
-0.1185	-0.230778594
-0.118	-0.2325172
-0.1175	-0.234255807
-0.117	-0.235994414
-0.1165	-0.237733021
-0.116	-0.239471628
-0.1155	-0.241210234
-0.115	-0.242948841
-0.1145	-0.244687448
-0.114	-0.246426055
-0.1135	-0.248164662
-0.113	-0.249903268
-0.1125	-0.252171016
-0.112	-0.254438337
-0.1115	-0.256706085
-0.111	-0.258973833
-0.1105	-0.261241154
-0.11	-0.263508902
-0.1095	-0.265776223
-0.109	-0.268043971
-0.1085	-0.270311719
-0.108	-0.27257904
-0.1075	-0.274846788
-0.107	-0.277114536
-0.1065	-0.279381857
-0.106	-0.281649605
-0.1055	-0.283916926
-0.105	-0.286184674
-0.1045	-0.288452422
-0.104	-0.290719743
-0.1035	-0.292987491
-0.103	-0.295255239
-0.1025	-0.298274632
-0.102	-0.301294453
-0.1015	-0.304313846
-0.101	-0.307333239
-0.1005	-0.31035306
-0.1	-0.313372453
-0.0995	-0.316392273
-0.099	-0.319411667
-0.0985	-0.322431487
-0.098	-0.32545088
-0.0975	-0.328470701
-0.097	-0.331490094
-0.0965	-0.334509915
-0.096	-0.337529308
-0.0955	-0.340549128
-0.095	-0.343568521
-0.0945	-0.346588342
-0.094	-0.349607735
-0.0935	-0.352627556
-0.093	-0.355646949
-0.0925	-0.358665061
-0.092	-0.361682746
-0.0915	-0.364700858
-0.091	-0.36771897
-0.0905	-0.370737082
-0.09	-0.373754767
-0.0895	-0.376772879
-0.089	-0.379790991
-0.0885	-0.382809103
-0.088	-0.385826789
-0.0875	-0.388844901
-0.087	-0.391863013
-0.0865	-0.394880698
-0.086	-0.39789881
-0.0855	-0.400916922
-0.085	-0.403935034
-0.0845	-0.406952719
-0.084	-0.409970831
-0.0835	-0.412988943
-0.083	-0.416006628
-0.0825	-0.41937622
-0.082	-0.422745812
-0.0815	-0.426115403
-0.081	-0.429484141
-0.0805	-0.432853732
-0.08	-0.436223324
-0.0795	-0.439592916
-0.079	-0.442962507
-0.0785	-0.446332099
-0.078	-0.449701691
-0.0775	-0.453071283
-0.077	-0.456440874
-0.0765	-0.459810466
-0.076	-0.463180058
-0.0755	-0.466549649
-0.075	-0.469919241
-0.0745	-0.473288833
-0.074	-0.476658424
-0.0735	-0.480028016
-0.073	-0.483397608
-0.0725	-0.486280338
-0.072	-0.489167339
-0.0715	-0.49205007
-0.071	-0.4949328
-0.0705	-0.497815531
-0.07	-0.500698261
-0.0695	-0.503585263
-0.069	-0.506467993
-0.0685	-0.509350724
-0.068	-0.512233454
-0.0675	-0.515116185
-0.067	-0.518003186
-0.0665	-0.520885917
-0.066	-0.523768647
-0.0655	-0.526651378
-0.065	-0.529538379
-0.0645	-0.532421109
-0.064	-0.53530384
-0.0635	-0.53818657
-0.063	-0.541069301
-0.0625	-0.543149138
-0.062	-0.545228974
-0.0615	-0.547308811
-0.061	-0.549384377
-0.0605	-0.551464214
-0.06	-0.55354405
-0.0595	-0.555623887
-0.059	-0.557699453
-0.0585	-0.55977929
-0.058	-0.561859126
-0.0575	-0.563938963
-0.057	-0.566014529
-0.0565	-0.568094366
-0.056	-0.570174202
-0.0555	-0.572254039
-0.055	-0.574333876
-0.0545	-0.576409442
-0.054	-0.578489278
-0.0535	-0.580569115
-0.053	-0.582648952
-0.0525	-0.582828322
-0.052	-0.583007692
-0.0515	-0.583187062
-0.051	-0.583370702
-0.0505	-0.583550072
-0.05	-0.583729442
-0.0495	-0.583908812
-0.049	-0.584092452
-0.0485	-0.584271822
-0.048	-0.584451192
-0.0475	-0.584630562
-0.047	-0.584814203
-0.0465	-0.584993573
-0.046	-0.585172943
-0.0455	-0.585352312
-0.045	-0.585535953
-0.0445	-0.585715323
-0.044	-0.585894693
-0.0435	-0.586074063
-0.043	-0.586257703
-0.0425	-0.583913083
-0.042	-0.581568462
-0.0415	-0.579223841
-0.041	-0.57687922
-0.0405	-0.574534599
-0.04	-0.572189978
-0.0395	-0.569845358
-0.039	-0.567500737
-0.0385	-0.565156116
-0.038	-0.562811495
-0.0375	-0.560466874
-0.037	-0.558122253
-0.0365	-0.555777633
-0.036	-0.553433012
-0.0355	-0.551088391
-0.035	-0.54874377
-0.0345	-0.546399149
-0.034	-0.544054528
-0.0335	-0.541709908
-0.033	-0.539365287
-0.0325	-0.533873151
-0.032	-0.528385287
-0.0315	-0.522897422
-0.031	-0.517405286
-0.0305	-0.511917422
-0.03	-0.506429557
-0.0295	-0.500937421
-0.029	-0.495449557
-0.0285	-0.489961692
-0.028	-0.484469556
-0.0275	-0.478981692
-0.027	-0.473489556
-0.0265	-0.468001691
-0.026	-0.462513826
-0.0255	-0.457021691
-0.025	-0.451533826
-0.0245	-0.446045961
-0.024	-0.440553826
-0.0235	-0.435065961
-0.023	-0.429578096
-0.0225	-0.421733653
-0.022	-0.413891345
-0.0215	-0.406048609
-0.021	-0.398205874
-0.0205	-0.390363566
-0.02	-0.38252083
-0.0195	-0.374678522
-0.019	-0.366835787
-0.0185	-0.358993052
-0.018	-0.351150743
-0.0175	-0.343308008
-0.017	-0.335465273
-0.0165	-0.327622965
-0.016	-0.319780229
-0.0155	-0.311937921
-0.015	-0.304095186
-0.0145	-0.29625245
-0.014	-0.288410142
-0.0135	-0.280567407
-0.013	-0.272724672
-0.0125	-0.262160212
-0.012	-0.251595324
-0.0115	-0.241030437
-0.011	-0.23046555
-0.0105	-0.219900663
-0.01	-0.209335776
-0.0095	-0.198770889
-0.009	-0.188206002
-0.0085	-0.177641115
-0.008	-0.167076228
-0.0075	-0.156511341
-0.007	-0.145946454
-0.0065	-0.135381567
-0.006	-0.12481668
-0.0055	-0.114251793
-0.005	-0.103686906
-0.0045	-0.093122019
-0.004	-0.082557131
-0.0035	-0.071992244
-0.003	-0.061427357
-0.0025	-0.050552417
-0.002	-0.039677818
-0.0015	-0.028803048
-0.001	-0.017928278
-0.0005	-0.007053508
0	0.003821279
0.0005	0.014696032
0.001	0.025570802
0.0015	0.036445615
0.002	0.047320342
0.0025	0.058195283
0.003	0.069069796
0.0035	0.079944737
0.004	0.090819251
0.0045	0.101694191
0.005	0.112569132
0.0055	0.123443646
0.006	0.134318587
0.0065	0.145193527
0.007	0.156068041
0.0075	0.167669003
0.008	0.179269537
0.0085	0.190870072
0.009	0.202471034
0.0095	0.214071569
0.01	0.22567253
0.0105	0.237273065
0.011	0.248874027
0.0115	0.260474562
0.012	0.272075523
0.0125	0.283676058
0.013	0.29527702
0.0135	0.306877554
0.014	0.318478089
0.0145	0.330079051
0.015	0.341679586
0.0155	0.353280547
0.016	0.364881082
0.0165	0.376482044
0.017	0.388082579
0.0175	0.399034819
0.018	0.409986633
0.0185	0.420938873
0.019	0.431892822
0.0195	0.442842928
0.02	0.453793033
0.0205	0.464747409
0.021	0.475697514
0.0215	0.48665189
0.022	0.497601995
0.0225	0.508556371
0.023	0.519506477
0.0235	0.530460853
0.024	0.541410958
0.0245	0.552365334
0.025	0.563315439
0.0255	0.574269815
0.026	0.58521992
0.0265	0.596174296
0.027	0.607124402
0.0275	0.615802488
0.028	0.624484845
0.0285	0.633162932
0.029	0.641841019
0.0295	0.650523376
0.03	0.659201462
0.0305	0.667879549
0.031	0.676557635
0.0315	0.685239993
0.032	0.693918079
0.0325	0.702596166
0.033	0.711278523
0.0335	0.71995661
0.034	0.728634696
0.0345	0.737317053
0.035	0.74599514
0.0355	0.754673227
0.036	0.763351313
0.0365	0.77203367
0.037	0.780711757
0.0375	0.787254488
0.038	0.793801489
0.0385	0.800344219
0.039	0.80688695
0.0395	0.813429681
0.04	0.819972411
0.0405	0.826519413
0.041	0.833062143
0.0415	0.839604874
0.042	0.846147604
0.0425	0.852694606
0.043	0.859237336
0.0435	0.865780067
0.044	0.872322798
0.0445	0.878869799
0.045	0.885412529
0.0455	0.89195526
0.046	0.898497991
0.0465	0.905044992
0.047	0.911587723
0.0475	0.915115331
0.048	0.918638668
0.0485	0.922166276
0.049	0.925693884
0.0495	0.929221492
0.05	0.9327491
0.0505	0.936272437
0.051	0.939800045
0.0515	0.943327653
0.052	0.946855261
0.0525	0.950382869
0.053	0.953906207
0.0535	0.957433815
0.054	0.960961423
0.0545	0.964489031
0.055	0.968016639
0.0555	0.971544247
0.056	0.975067584
0.0565	0.978595192
0.057	0.9821228
0.0575	0.983015379
0.058	0.983912228
0.0585	0.984804807
0.059	0.985697386
0.0595	0.986589965
0.06	0.987486814
0.0605	0.988379393
0.061	0.989271972
0.0615	0.990168821
0.062	0.9910614
0.0625	0.991953979
0.063	0.992846558
0.0635	0.993743407
0.064	0.994635986
0.0645	0.995528565
0.065	0.996425414
0.0655	0.997317993
0.066	0.998210572
0.0665	0.999107421
0.067	1
0.0675	0.999017736
0.068	0.998035473
0.0685	0.997053209
0.069	0.996070945
0.0695	0.995088681
0.07	0.994106418
0.0705	0.993124154
0.071	0.99214189
0.0715	0.991159626
0.072	0.990177363
0.0725	0.989195099
0.073	0.988212835
0.0735	0.987230572
0.074	0.986248308
0.0745	0.985266044
0.075	0.98428378
0.0755	0.983301517
0.076	0.982319253
0.0765	0.981336989
0.077	0.980354725
0.0775	0.977719696
0.078	0.975084667
0.0785	0.972449638
0.079	0.969814608
0.0795	0.96718385
0.08	0.964548821
0.0805	0.961913791
0.081	0.959278762
0.0815	0.956643733
0.082	0.954012974
0.0825	0.951377945
0.083	0.948742916
0.0835	0.946107887
0.084	0.943472858
0.0845	0.940842099
0.085	0.93820707
0.0855	0.935572041
0.086	0.932937011
0.0865	0.930301982
0.087	0.927671224
0.0875	0.924254654
0.088	0.920842355
0.0885	0.917430056
0.089	0.914017758
0.0895	0.910605459
0.09	0.90719316
0.0905	0.903776591
0.091	0.900364292
0.0915	0.896951993
0.092	0.893539694
0.0925	0.890127395
0.093	0.886715097
0.0935	0.883302798
0.094	0.879886228
0.0945	0.876473929
0.095	0.873061631
0.0955	0.869649332
0.096	0.866237033
0.0965	0.862824734
0.097	0.859408165
0.0975	0.855790872
0.098	0.852173579
0.0985	0.848556286
0.099	0.844938993
0.0995	0.8413217
0.1	0.837704407
0.1005	0.834087114
0.101	0.830469821
0.1015	0.826852528
0.102	0.823235235
0.1025	0.819617942
0.103	0.816000649
0.1035	0.812383356
0.104	0.808766063
0.1045	0.80514877
0.105	0.801531477
0.1055	0.797914184
0.106	0.794296891
0.1065	0.790679598
0.107	0.787062305
0.1075	0.783577405
0.108	0.780092504
0.1085	0.776611873
0.109	0.773126973
0.1095	0.769642072
0.11	0.766157171
0.1105	0.76267227
0.111	0.759187369
0.1115	0.755702468
0.112	0.752217567
0.1125	0.748732666
0.113	0.745252036
0.1135	0.741767135
0.114	0.738282234
0.1145	0.734797333
0.115	0.731312433
0.1155	0.727827532
0.116	0.724342631
0.1165	0.72085773
0.117	0.717372829
0.1175	0.713853762
0.118	0.710334696
0.1185	0.706815629
0.119	0.703292292
0.1195	0.699773225
0.12	0.696254159
0.1205	0.692735092
0.121	0.689211755
0.1215	0.685692688
0.122	0.682173622
0.1225	0.678654555
0.123	0.675131218
0.1235	0.671612151
0.124	0.668093084
0.1245	0.664574018
0.125	0.661050681
0.1255	0.657531614
0.126	0.654012547
0.1265	0.650493481
0.127	0.646970144
0.1275	0.643792734
0.128	0.640615324
0.1285	0.637437915
0.129	0.634260505
0.1295	0.631083095
0.13	0.627905686
0.1305	0.624728276
0.131	0.621546596
0.1315	0.618369186
0.132	0.615191776
0.1325	0.612014367
0.133	0.608836957
0.1335	0.605659547
0.134	0.602482138
0.1345	0.599300457
0.135	0.596123048
0.1355	0.592945638
0.136	0.589768229
0.1365	0.586590819
0.137	0.583413409
0.1375	0.580705778
0.138	0.578002417
0.1385	0.575299057
0.139	0.572595696
0.1395	0.569888065
0.14	0.567184704
0.1405	0.564481343
0.141	0.561773712
0.1415	0.559070351
0.142	0.556366991
0.1425	0.55366363
0.143	0.550955999
0.1435	0.548252638
0.144	0.545549278
0.1445	0.542841646
0.145	0.540138286
0.1455	0.537434925
0.146	0.534731564
0.1465	0.532023933
0.147	0.529320572
0.1475	0.526689814
0.148	0.524063326
0.1485	0.521432568
0.149	0.51880608
0.1495	0.516175321
0.15	0.513548834
0.1505	0.510918075
0.151	0.508291587
0.1515	0.505660829
0.152	0.503034341
0.1525	0.500403582
0.153	0.497777095
0.1535	0.495146336
0.154	0.492519848
0.1545	0.48988909
0.155	0.487262602
0.1555	0.484631843
0.156	0.482005356
0.1565	0.479374597
0.157	0.476743838
0.1575	0.474394947
0.158	0.472041785
0.1585	0.469688622
0.159	0.467339731
0.1595	0.464986569
0.16	0.462633406
0.1605	0.460284515
0.161	0.457931353
0.1615	0.45557819
0.162	0.453225028
0.1625	0.450876137
0.163	0.448522974
0.1635	0.446169812
0.164	0.443820921
0.1645	0.441467758
0.165	0.439114596
0.1655	0.436765705
0.166	0.434412542
0.1665	0.43205938
0.167	0.429706218
0.1675	0.42761784
0.168	0.425528607
0.1685	0.423438521
0.169	0.421348862
0.1695	0.419259202
0.17	0.417169116
0.1705	0.415079457
0.171	0.412989797
0.1715	0.410899711
0.172	0.408810052
0.1725	0.406720392
0.173	0.404630306
0.1735	0.402540647
0.174	0.40045056
0.1745	0.398360901
0.175	0.396271242
0.1755	0.394181155
0.176	0.392091496
0.1765	0.390001836
0.177	0.38791175
0.1775	0.386066375
0.178	0.384221428
0.1785	0.382376053
0.179	0.380530679
0.1795	0.378685731
0.18	0.376840357
0.1805	0.374994982
0.181	0.373149607
0.1815	0.37130466
0.182	0.369459285
0.1825	0.367613911
0.183	0.365768536
0.1835	0.363923588
0.184	0.362078214
0.1845	0.360232839
0.185	0.358387465
0.1855	0.356542517
0.186	0.354697143
0.1865	0.352851768
0.187	0.351006393
0.1875	0.349284015
0.188	0.347561637
0.1885	0.345839259
0.189	0.344116881
0.1895	0.342394503
0.19	0.340672125
0.1905	0.338949747
0.191	0.337227368
0.1915	0.33550499
0.192	0.333782612
0.1925	0.332060234
0.193	0.330337856
0.1935	0.328615051
0.194	0.326892673
0.1945	0.325170295
0.195	0.323447917
0.1955	0.321725538
0.196	0.32000316
0.1965	0.318280782
0.197	0.316558404
0.1975	0.315040166
0.198	0.313521501
0.1985	0.312003263
0.199	0.310485025
0.1995	0.308966787
0.2	0.307448549
0.2005	0.305929884
0.201	0.304411645
0.2015	0.302893407
0.202	0.301375169
0.2025	0.299856931
0.203	0.298338266
0.2035	0.296820028
0.204	0.29530179
0.2045	0.293783552
0.205	0.292264887
0.2055	0.290746649
0.206	0.289228411
0.2065	0.287710172
0.207	0.286191934
0.2075	0.28480737
0.208	0.283422805
0.2085	0.282038667
0.209	0.280654102
0.2095	0.279269537
0.21	0.2778854
0.2105	0.276500835
0.211	0.27511627
0.2115	0.273732132
0.212	0.272347568
0.2125	0.270963003
0.213	0.269578865
0.2135	0.2681943
0.214	0.266809736
0.2145	0.265425598
0.215	0.264041033
0.2155	0.262656895
0.216	0.261272331
0.2165	0.259887766
0.217	0.258503628
0.2175	0.257334307
0.218	0.256164986
0.2185	0.254995665
0.219	0.253826771
0.2195	0.252657451
0.22	0.25148813
0.2205	0.250319236
0.221	0.249149915
0.2215	0.247980594
0.222	0.2468117
0.2225	0.245642379
0.223	0.244473058
0.2235	0.243303737
0.224	0.242134844
0.2245	0.240965523
0.225	0.239796202
0.2255	0.238627308
0.226	0.237457987
0.2265	0.236288666
0.227	0.235119772
0.2275	0.233991877
0.228	0.232863982
0.2285	0.231736087
0.229	0.230608192
0.2295	0.229480297
0.23	0.228352402
0.2305	0.227224507
0.231	0.226096612
0.2315	0.224968717
0.232	0.223840822
0.2325	0.222713354
0.233	0.221585459
0.2335	0.220457564
0.234	0.219329669
0.2345	0.218201774
0.235	0.217073879
0.2355	0.215945984
0.236	0.214818089
0.2365	0.213690194
0.237	0.212562299
0.2375	0.211557401
0.238	0.210552502
0.2385	0.209547604
0.239	0.208542705
0.2395	0.207537807
0.24	0.206532908
0.2405	0.20552801
0.241	0.204523111
0.2415	0.203517785
0.242	0.202512887
0.2425	0.201507988
0.243	0.20050309
0.2435	0.199498191
0.244	0.198493293
0.2445	0.197488394
0.245	0.196483496
0.2455	0.195478597
0.246	0.194473699
0.2465	0.1934688
0.247	0.192463475
0.2475	0.191579437
0.248	0.1906954
0.2485	0.189811363
0.249	0.188926898
0.2495	0.188042861
0.25	0.187158824
0.2505	0.186274786
0.251	0.185390322
0.2515	0.184506284
0.252	0.183622247
0.2525	0.182737783
0.253	0.181853745
0.2535	0.180969708
0.254	0.180085671
0.2545	0.179201206
0.255	0.178317169
0.2555	0.177433131
0.256	0.176549094
0.2565	0.17566463
0.257	0.174780592
0.2575	0.173981542
0.258	0.173182919
0.2585	0.172383869
0.259	0.171585246
0.2595	0.170786195
0.26	0.169987572
0.2605	0.169188522
0.261	0.168389899
0.2615	0.167590849
0.262	0.166791799
0.2625	0.165993175
0.263	0.165194125
0.2635	0.164395502
0.264	0.163596452
0.2645	0.162797829
0.265	0.161998779
0.2655	0.161200156
0.266	0.160401105
0.2665	0.159602055
0.267	0.158803432
0.2675	0.158090223
0.268	0.157376587
0.2685	0.156663378
0.269	0.155950169
0.2695	0.15523696
0.27	0.154523325
0.2705	0.153810116
0.271	0.153096907
0.2715	0.152383698
0.272	0.151670062
0.2725	0.150956853
0.273	0.150243644
0.2735	0.149530435
0.274	0.148816799
0.2745	0.14810359
0.275	0.147390382
0.2755	0.146677173
0.276	0.145963537
0.2765	0.145250328
0.277	0.144537119
0.2775	0.143871315
0.278	0.143205511
0.2785	0.142539707
0.279	0.141873903
0.2795	0.141208099
0.28	0.140541868
0.2805	0.139876064
0.281	0.13921026
0.2815	0.138544456
0.282	0.137878652
0.2825	0.137212848
0.283	0.136547044
0.2835	0.13588124
0.284	0.135215436
0.2845	0.134549632
0.285	0.133883828
0.2855	0.133218024
0.286	0.13255222
0.2865	0.131886416
0.287	0.131220612
0.2875	0.130669263
0.288	0.130118341
0.2885	0.12956742
0.289	0.129016071
0.2895	0.128465149
0.29	0.127914227
0.2905	0.127362878
0.291	0.126811956
0.2915	0.126261035
0.292	0.125709686
0.2925	0.125158764
0.293	0.124607842
0.2935	0.124056493
0.294	0.123505571
0.2945	0.122954649
0.295	0.1224033
0.2955	0.121852379
0.296	0.121301457
0.2965	0.120750108
0.297	0.120199186
0.2975	0.119672607
0.298	0.119146029
0.2985	0.11861945
0.299	0.118092444
0.2995	0.117565865
0.3	0.117039286
0.3005	0.116512708
0.301	0.115986129
0.3015	0.11545955
0.302	0.114932544
0.3025	0.114405965
0.303	0.113879387
0.3035	0.113352808
0.304	0.112826229
0.3045	0.11229965
0.305	0.111772644
0.3055	0.111246066
0.306	0.110719487
0.3065	0.110192908
0.307	0.109666329
0.3075	0.109198259
0.308	0.108729762
0.3085	0.108261692
0.309	0.107793622
0.3095	0.107325552
0.31	0.106857055
0.3105	0.106388985
0.311	0.105920915
0.3115	0.105452845
0.312	0.104984348
0.3125	0.104516278
0.313	0.104048208
0.3135	0.103580138
0.314	0.103111641
0.3145	0.102643571
0.315	0.102175501
0.3155	0.101707431
0.316	0.101239361
0.3165	0.100770864
0.317	0.100302794
0.3175	0.099871452
0.318	0.099439683
0.3185	0.099008341
0.319	0.098576999
0.3195	0.098145657
0.32	0.097713888
0.3205	0.097282546
0.321	0.096851204
0.3215	0.096419435
0.322	0.095988093
0.3225	0.095556751
0.323	0.095124982
0.3235	0.094693641
0.324	0.094262299
0.3245	0.093830957
0.325	0.093399188
0.3255	0.092967846
0.326	0.092536504
0.3265	0.092104735
0.327	0.091673393
0.3275	0.091287321
0.328	0.090901248
0.3285	0.090515176
0.329	0.090129104
0.3295	0.089743031
0.33	0.089356959
0.3305	0.088970887
0.331	0.088584814
0.3315	0.088198742
0.332	0.08781267
0.3325	0.087426597
0.333	0.087040525
0.3335	0.086654452
0.334	0.086268807
0.3345	0.085882735
0.335	0.085496662
0.3355	0.08511059
0.336	0.084724518
0.3365	0.084338445
0.337	0.083952373
0.3375	0.08361456
0.338	0.083277174
0.3385	0.082939787
0.339	0.082602401
0.3395	0.082264588
0.34	0.081927201
0.3405	0.081589815
0.341	0.081252002
0.3415	0.080914616
0.342	0.080577229
0.3425	0.080239843
0.343	0.07990203
0.3435	0.079564644
0.344	0.079227257
0.3445	0.078889444
0.345	0.078552058
0.3455	0.078214672
0.346	0.077877285
0.3465	0.077539472
0.347	0.077202086
0.3475	0.076885199
0.348	0.076568312
0.3485	0.076251425
0.349	0.075934539
0.3495	0.075617652
0.35	0.075300765
0.3505	0.074983878
0.351	0.074666991
0.3515	0.074350104
0.352	0.074033218
0.3525	0.073715904
0.353	0.073399017
0.3535	0.07308213
0.354	0.072765243
0.3545	0.072448356
0.355	0.07213147
0.3555	0.071814583
0.356	0.071497696
0.3565	0.071180809
0.357	0.070863922
0.3575	0.070583764
0.358	0.070303178
0.3585	0.070023019
0.359	0.06974286
0.3595	0.069462275
0.36	0.069182116
0.3605	0.068901957
0.361	0.068621372
0.3615	0.068341213
0.362	0.068060627
0.3625	0.067780468
0.363	0.06750031
0.3635	0.067219724
0.364	0.066939565
0.3645	0.066659407
0.365	0.066378821
0.3655	0.066098662
0.366	0.065818503
0.3665	0.065537918
0.367	0.065257759
0.3675	0.064998527
0.368	0.064739294
0.3685	0.064480062
0.369	0.06422083
0.3695	0.063961171
0.37	0.063701939
0.3705	0.063442706
0.371	0.063183474
0.3715	0.062924242
0.372	0.06266501
0.3725	0.062405777
0.373	0.062146545
0.3735	0.061887313
0.374	0.061628081
0.3745	0.061368849
0.375	0.061109189
0.3755	0.060849957
0.376	0.060590725
0.3765	0.060331493
0.377	0.06007226
0.3775	0.059837371
0.378	0.059602482
0.3785	0.05936802
0.379	0.059133131
0.3795	0.058898242
0.38	0.058663353
0.3805	0.058428463
0.381	0.058194001
0.3815	0.057959112
0.382	0.057724223
0.3825	0.057489334
0.383	0.057254445
0.3835	0.057019556
0.384	0.056785094
0.3845	0.056550204
0.385	0.056315315
0.3855	0.056080426
0.386	0.055845537
0.3865	0.055610648
0.387	0.055376186
0.3875	0.055167775
0.388	0.054958937
0.3885	0.054750526
0.389	0.054542116
0.3895	0.054333705
0.39	0.054125294
0.3905	0.053916883
0.391	0.053708473
0.3915	0.053500062
0.392	0.053291651
0.3925	0.05308324
0.393	0.052874403
0.3935	0.052665992
0.394	0.052457581
0.3945	0.05224917
0.395	0.05204076
0.3955	0.051832349
0.396	0.051623938
0.3965	0.051415528
0.397	0.051207117
0.3975	0.051015362
0.398	0.050823607
0.3985	0.050631852
0.399	0.050440097
0.3995	0.050248342
0.4	0.050056587
0.4005	0.049864832
0.401	0.049673077
0.4015	0.049481322
0.402	0.049289567
0.4025	0.049097812
0.403	0.048906057
0.4035	0.048714302
0.404	0.048522547
0.4045	0.048330792
0.405	0.048139037
0.4055	0.047947282
0.406	0.047755527
0.4065	0.047563772
0.407	0.047372017
0.4075	0.047198627
0.408	0.047025663
0.4085	0.046852699
0.409	0.046679308
0.4095	0.046506344
0.41	0.04633338
0.4105	0.046159989
0.411	0.045987026
0.4115	0.045814062
0.412	0.045640671
0.4125	0.045467707
0.413	0.045294743
0.4135	0.045121352
0.414	0.044948388
0.4145	0.044775425
0.415	0.044602034
0.4155	0.04442907
0.416	0.044256106
0.4165	0.044082715
0.417	0.043909751
0.4175	0.043747891
0.418	0.043586458
0.4185	0.043424598
0.419	0.043263166
0.4195	0.043101306
0.42	0.042939873
0.4205	0.042778013
0.421	0.042616366
0.4215	0.04245472
0.422	0.042293031
0.4225	0.042131384
0.423	0.041969695
0.4235	0.041808049
0.424	0.041646359
0.4245	0.041484713
0.425	0.041323024
0.4255	0.041161377
0.426	0.040999688
0.4265	0.040838042
0.427	0.040676353
0.4275	0.040531063
0.428	0.040385773
0.4285	0.040240484
0.429	0.040095237
0.4295	0.039949947
0.43	0.039804658
0.4305	0.039659368
0.431	0.039514078
0.4315	0.039368789
0.432	0.039223499
0.4325	0.03907821
0.433	0.03893292
0.4335	0.03878763
0.434	0.038642341
0.4345	0.038497051
0.435	0.038351762
0.4355	0.038206472
0.436	0.038061182
0.4365	0.037915893
0.437	0.037770603
0.4375	0.037638424
0.438	0.037506246
0.4385	0.037374025
0.439	0.037241846
0.4395	0.037109625
0.44	0.036977446
0.4405	0.036845225
0.441	0.036713047
0.4415	0.036580868
0.442	0.036448647
0.4425	0.036316468
0.443	0.036184247
0.4435	0.036052069
0.444	0.035919847
0.4445	0.035787669
0.445	0.03565549
0.4455	0.035523269
0.446	0.03539109
0.4465	0.035258869
0.447	0.035126691
0.4475	0.035004378
0.448	0.034882064
0.4485	0.034759751
0.449	0.034637438
0.4495	0.034515125
0.45	0.034392812
0.4505	0.034270498
0.451	0.034148185
0.4515	0.034025872
0.452	0.033903559
0.4525	0.033781246
0.453	0.033658932
0.4535	0.033536619
0.454	0.033414306
0.4545	0.03329195
0.455	0.033169637
0.4555	0.033047324
0.456	0.032925011
0.4565	0.032802697
0.457	0.032680384
0.4575	0.032569175
0.458	0.032457966
0.4585	0.032346714
0.459	0.032235504
0.4595	0.032124295
0.46	0.032013043
0.4605	0.031901833
0.461	0.031790624
0.4615	0.031679372
0.462	0.031568163
0.4625	0.031456953
0.463	0.031345701
0.4635	0.031234492
0.464	0.031123283
0.4645	0.031012031
0.465	0.030900821
0.4655	0.030789612
0.466	0.03067836
0.4665	0.030567151
0.467	0.030455941
0.4675	0.030351736
0.468	0.030247573
0.4685	0.030143368
0.469	0.030039205
0.4695	0.029935
0.47	0.029830837
0.4705	0.029726632
0.471	0.029622469
0.4715	0.029518264
0.472	0.029414101
0.4725	0.029309938
0.473	0.029205733
0.4735	0.02910157
0.474	0.028997365
0.4745	0.028893202
0.475	0.028788997
0.4755	0.028684834
0.476	0.028580629
0.4765	0.028476466
0.477	0.028372261
0.4775	0.028280782
0.478	0.028189304
0.4785	0.028097825
0.479	0.028006346
0.4795	0.027914868
0.48	0.027823389
0.4805	0.02773191
0.481	0.027640432
0.4815	0.027548953
0.482	0.027457474
0.4825	0.027365996
0.483	0.027274517
0.4835	0.027183038
0.484	0.02709156
0.4845	0.027000081
0.485	0.026908603
0.4855	0.026817124
0.486	0.026725645
0.4865	0.026634167
0.487	0.026542688
0.4875	0.026456676
0.488	0.026370706
0.4885	0.026284694
0.489	0.026198725
0.4895	0.026112713
0.49	0.026026701
0.4905	0.025940731
0.491	0.025854719
0.4915	0.02576875
0.492	0.025682737
0.4925	0.025596768
0.493	0.025510756
0.4935	0.025424744
0.494	0.025338774
0.4945	0.025252762
0.495	0.025166793
0.4955	0.025080781
0.496	0.024994811
0.4965	0.024908799
0.497	0.02482283
0.4975	0.024742626
0.498	0.024662422
0.4985	0.024582218
0.499	0.024502014
0.4995	0.024421852
0.5	0.024341648
0.5005	0.024261444
0.501	0.024181241
0.5015	0.024101079
0.502	0.024020875
0.5025	0.023940671
0.503	0.023860467
0.5035	0.023780306
0.504	0.023700102
0.5045	0.023619898
0.505	0.023539694
0.5055	0.023459533
0.506	0.023379329
0.5065	0.023299125
0.507	0.023218921
0.5075	0.023145764
0.508	0.023072564
0.5085	0.022999364
0.509	0.022926206
0.5095	0.022853006
0.51	0.022779806
0.5105	0.022706649
0.511	0.022633449
0.5115	0.022560292
0.512	0.022487092
0.5125	0.022413892
0.513	0.022340735
0.5135	0.022267535
0.514	0.022194335
0.5145	0.022121177
0.515	0.022047977
0.5155	0.021974777
0.516	0.02190162
0.5165	0.02182842
0.517	0.02175522
0.5175	0.021686718
0.518	0.021618173
0.5185	0.021549628
0.519	0.021481083
0.5195	0.021412581
0.52	0.021344036
0.5205	0.021275491
0.521	0.021206946
0.5215	0.021138444
0.522	0.021069899
0.5225	0.021001354
0.523	0.020932809
0.5235	0.020864307
0.524	0.020795762
0.5245	0.020727217
0.525	0.020658672
0.5255	0.02059017
0.526	0.020521625
0.5265	0.02045308
0.527	0.020384578
0.5275	0.020321585
0.528	0.020258634
0.5285	0.020195684
0.529	0.020132734
0.5295	0.020069783
0.53	0.020006833
0.5305	0.019943883
0.531	0.019880933
0.5315	0.019817982
0.532	0.019755032
0.5325	0.019692082
0.533	0.019629131
0.5335	0.019566181
0.534	0.019503188
0.5345	0.019440238
0.535	0.019377288
0.5355	0.019314337
0.536	0.019251387
0.5365	0.019188437
0.537	0.019125486
0.5375	0.019067576
0.538	0.019009707
0.5385	0.018951797
0.539	0.018893928
0.5395	0.018836018
0.54	0.018778149
0.5405	0.018720239
0.541	0.01866237
0.5415	0.01860446
0.542	0.018546591
0.5425	0.018488681
0.543	0.018430812
0.5435	0.018372902
0.544	0.018315033
0.5445	0.018257123
0.545	0.018199212
0.5455	0.018141344
0.546	0.018083433
0.5465	0.018025565
0.547	0.017967654
0.5475	0.017914355
0.548	0.017861014
0.5485	0.017807716
0.549	0.017754374
0.5495	0.017701076
0.55	0.017647735
0.5505	0.017594436
0.551	0.017541138
0.5515	0.017487796
0.552	0.017434498
0.5525	0.017381157
0.553	0.017327858
0.5535	0.017274517
0.554	0.017221219
0.5545	0.017167877
0.555	0.017114579
0.5555	0.017061238
0.556	0.017007939
0.5565	0.016954598
0.557	0.0169013
0.5575	0.016851546
0.558	0.016801792
0.5585	0.016752081
0.559	0.016702327
0.5595	0.016652573
0.56	0.016602862
0.5605	0.016553108
0.561	0.016503355
0.5615	0.016453601
0.562	0.01640389
0.5625	0.016354136
0.563	0.016304382
0.5635	0.016254671
0.564	0.016204917
0.5645	0.016155164
0.565	0.01610541
0.5655	0.016055699
0.566	0.016005945
0.5665	0.015956191
0.567	0.01590648
0.5675	0.015860698
0.568	0.015814916
0.5685	0.015769134
0.569	0.015723352
0.5695	0.01567757
0.57	0.015631831
0.5705	0.015586048
0.571	0.015540266
0.5715	0.015494484
0.572	0.015448702
0.5725	0.01540292
0.573	0.015357138
0.5735	0.015311399
0.574	0.015265617
0.5745	0.015219835
0.575	0.015174053
0.5755	0.015128271
0.576	0.015082489
0.5765	0.01503675
0.577	0.014990967
0.5775	0.014947876
0.578	0.014904785
0.5785	0.014861736
0.579	0.014818644
0.5795	0.014775553
0.58	0.014732461
0.5805	0.01468937
0.581	0.014646321
0.5815	0.01460323
0.582	0.014560138
0.5825	0.014517047
0.583	0.014473998
0.5835	0.014430906
0.584	0.014387815
0.5845	0.014344723
0.585	0.014301675
0.5855	0.014258583
0.586	0.014215492
0.5865	0.0141724
0.587	0.014129351
0.5875	0.01408942
0.588	0.014049532
0.5885	0.014009643
0.589	0.013969755
0.5895	0.013929866
0.59	0.013889978
0.5905	0.013850047
0.591	0.013810158
0.5915	0.01377027
0.592	0.013730381
0.5925	0.013690493
0.593	0.013650562
0.5935	0.013610673
0.594	0.013570785
0.5945	0.013530897
0.595	0.013491008
0.5955	0.01345112
0.596	0.013411188
0.5965	0.0133713
0.597	0.013331412
0.5975	0.013293872
0.598	0.013256332
0.5985	0.013218793
0.599	0.013181296
0.5995	0.013143756
0.6	0.013106217
0.6005	0.013068677
0.601	0.013031138
0.6015	0.012993641
0.602	0.012956101
0.6025	0.012918562
0.603	0.012881022
0.6035	0.012843483
0.604	0.012805943
0.6045	0.012768446
0.605	0.012730907
0.6055	0.012693367
0.606	0.012655828
0.6065	0.012618288
0.607	0.012580749
0.6075	0.012546284
0.608	0.012511777
0.6085	0.012477312
0.609	0.012442805
0.6095	0.012408297
0.61	0.012373833
0.6105	0.012339325
0.611	0.012304861
0.6115	0.012270353
0.612	0.012235846
0.6125	0.012201381
0.613	0.012166874
0.6135	0.012132409
0.614	0.012097902
0.6145	0.012063394
0.615	0.01202893
0.6155	0.011994423
0.616	0.011959958
0.6165	0.011925451
0.617	0.011890943
0.6175	0.01185887
0.618	0.011826797
0.6185	0.011794724
0.619	0.011762608
0.6195	0.011730535
0.62	0.011698462
0.6205	0.011666389
0.621	0.011634316
0.6215	0.0116022
0.622	0.011570127
0.6225	0.011538054
0.623	0.011505981
0.6235	0.011473865
0.624	0.011441792
0.6245	0.011409719
0.625	0.011377646
0.6255	0.011345573
0.626	0.011313457
0.6265	0.011281384
0.627	0.011249311
0.6275	0.011219502
0.628	0.011189692
0.6285	0.011159883
0.629	0.011130073
0.6295	0.011100264
0.63	0.011070454
0.6305	0.011040644
0.631	0.011010835
0.6315	0.010981025
0.632	0.010951258
0.6325	0.010921449
0.633	0.010891639
0.6335	0.01086183
0.634	0.01083202
0.6345	0.010802211
0.635	0.010772401
0.6355	0.010742591
0.636	0.010712782
0.6365	0.010682972
0.637	0.010653163
0.6375	0.010625446
0.638	0.010597729
0.6385	0.010570012
0.639	0.010542295
0.6395	0.010514578
0.64	0.010486904
0.6405	0.010459187
0.641	0.01043147
0.6415	0.010403753
0.642	0.010376036
0.6425	0.010348319
0.643	0.010320602
0.6435	0.010292885
0.644	0.010265169
0.6445	0.010237452
0.645	0.010209735
0.6455	0.010182018
0.646	0.010154301
0.6465	0.010126584
0.647	0.010098867
0.6475	0.010072218
0.648	0.010045526
0.6485	0.010018877
0.649	0.009992227
0.6495	0.009965535
0.65	0.009938886
0.6505	0.009912237
0.651	0.009885545
0.6515	0.009858896
0.652	0.009832246
0.6525	0.009805555
0.653	0.009778905
0.6535	0.009752256
0.654	0.009725564
0.6545	0.009698915
0.655	0.009672266
0.6555	0.009645574
0.656	0.009618924
0.6565	0.009592275
0.657	0.009565583
0.6575	0.009540941
0.658	0.009516299
0.6585	0.009491615
0.659	0.009466972
0.6595	0.009442288
0.66	0.009417646
0.6605	0.009392961
0.661	0.009368319
0.6615	0.009343677
0.662	0.009318992
0.6625	0.00929435
0.663	0.009269666
0.6635	0.009245024
0.664	0.009220339
0.6645	0.009195697
0.665	0.009171055
0.6655	0.00914637
0.666	0.009121728
0.6665	0.009097043
0.667	0.009072401
0.6675	0.009049468
0.668	0.009026491
0.6685	0.009003558
0.669	0.008980624
0.6695	0.00895769
0.67	0.008934756
0.6705	0.008911823
0.671	0.008888846
0.6715	0.008865913
0.672	0.008842979
0.6725	0.008820045
0.673	0.008797111
0.6735	0.008774178
0.674	0.008751201
0.6745	0.008728267
0.675	0.008705334
0.6755	0.0086824
0.676	0.008659466
0.6765	0.00863649
0.677	0.008613556
0.6775	0.008591904
0.678	0.008570251
0.6785	0.008548556
0.679	0.008526903
0.6795	0.008505251
0.68	0.008483556
0.6805	0.008461903
0.681	0.008440251
0.6815	0.008418598
0.682	0.008396903
0.6825	0.00837525
0.683	0.008353598
0.6835	0.008331903
0.684	0.00831025
0.6845	0.008288598
0.685	0.008266902
0.6855	0.00824525
0.686	0.008223597
0.6865	0.008201902
0.687	0.00818025
0.6875	0.008159878
0.688	0.008139464
0.6885	0.008119093
0.689	0.008098679
0.6895	0.008078308
0.69	0.008057894
0.6905	0.008037523
0.691	0.008017109
0.6915	0.007996737
0.692	0.007976323
0.6925	0.007955952
0.693	0.007935538
0.6935	0.007915167
0.694	0.007894753
0.6945	0.007874381
0.695	0.007853967
0.6955	0.007833596
0.696	0.007813225
0.6965	0.007792811
0.697	0.007772439
0.6975	0.007753435
0.698	0.007734473
0.6985	0.007715511
0.699	0.007696549
0.6995	0.007677587
0.7	0.007658582
0.7005	0.00763962
0.701	0.007620658
0.7015	0.007601696
0.702	0.007582734
0.7025	0.00756373
0.703	0.007544768
0.7035	0.007525806
0.704	0.007506844
0.7045	0.007487839
0.705	0.007468877
0.7055	0.007449915
0.706	0.007430953
0.7065	0.007411991
0.707	0.007392987
0.7075	0.007375306
0.708	0.007357582
0.7085	0.007339859
0.709	0.007322178
0.7095	0.007304455
0.71	0.007286731
0.7105	0.007269051
0.711	0.007251327
0.7115	0.007233604
0.712	0.00721588
0.7125	0.0071982
0.713	0.007180476
0.7135	0.007162753
0.714	0.007145072
0.7145	0.007127348
0.715	0.007109625
0.7155	0.007091944
0.716	0.007074221
0.7165	0.007056497
0.717	0.007038817
0.7175	0.007021905
0.718	0.007004993
0.7185	0.00698808
0.719	0.006971211
0.7195	0.006954299
0.72	0.006937387
0.7205	0.006920518
0.721	0.006903606
0.7215	0.006886694
0.722	0.006869824
0.7225	0.006852912
0.723	0.006836
0.7235	0.006819088
0.724	0.006802219
0.7245	0.006785307
0.725	0.006768395
0.7255	0.006751526
0.726	0.006734614
0.7265	0.006717702
0.727	0.006700832
0.7275	0.00668486
0.728	0.006668887
0.7285	0.006652915
0.729	0.006636943
0.7295	0.00662097
0.73	0.006604998
0.7305	0.006589025
0.731	0.006573095
0.7315	0.006557123
0.732	0.00654115
0.7325	0.006525178
0.733	0.006509206
0.7335	0.006493233
0.734	0.006477261
0.7345	0.006461331
0.735	0.006445358
0.7355	0.006429386
0.736	0.006413414
0.7365	0.006397441
0.737	0.006381469
0.7375	0.006366777
0.738	0.006352129
0.7385	0.006337438
0.739	0.006322746
0.7395	0.006308055
0.74	0.006293406
0.7405	0.006278715
0.741	0.006264024
0.7415	0.006249333
0.742	0.006234642
0.7425	0.006219993
0.743	0.006205302
0.7435	0.00619061
0.744	0.006175919
0.7445	0.006161228
0.745	0.006146579
0.7455	0.006131888
0.746	0.006117197
0.7465	0.006102506
0.747	0.006087814
0.7475	0.006073849
0.748	0.006059884
0.7485	0.006045876
0.749	0.006031911
0.7495	0.006017903
0.75	0.006003938
0.7505	0.005989972
0.751	0.005975964
0.7515	0.005961999
0.752	0.005947991
0.7525	0.005934026
0.753	0.005920018
0.7535	0.005906053
0.754	0.005892088
0.7545	0.00587808
0.755	0.005864115
0.7555	0.005850107
0.756	0.005836141
0.7565	0.005822176
0.757	0.005808168
0.7575	0.005795057
0.758	0.005781946
0.7585	0.005768792
0.759	0.005755681
0.7595	0.00574257
0.76	0.005729459
0.7605	0.005716348
0.761	0.005703194
0.7615	0.005690083
0.762	0.005676972
0.7625	0.005663861
0.763	0.005650707
0.7635	0.005637596
0.764	0.005624485
0.7645	0.005611374
0.765	0.00559822
0.7655	0.005585109
0.766	0.005571998
0.7665	0.005558887
0.767	0.005545733
0.7675	0.005533177
0.768	0.005520621
0.7685	0.005508065
0.769	0.005495509
0.7695	0.005482911
0.77	0.005470355
0.7705	0.005457799
0.771	0.005445243
0.7715	0.005432645
0.772	0.005420089
0.7725	0.005407533
0.773	0.005394977
0.7735	0.005382378
0.774	0.005369822
0.7745	0.005357266
0.775	0.005344711
0.7755	0.005332155
0.776	0.005319556
0.7765	0.005307
0.777	0.005294444
0.7775	0.005282529
0.778	0.005270656
0.7785	0.005258741
0.779	0.005246826
0.7795	0.005234953
0.78	0.005223038
0.7805	0.005211165
0.781	0.00519925
0.7815	0.005187335
0.782	0.005175462
0.7825	0.005163547
0.783	0.005151632
0.7835	0.005139759
0.784	0.005127844
0.7845	0.005115971
0.785	0.005104056
0.7855	0.005092141
0.786	0.005080268
0.7865	0.005068353
0.787	0.00505648
0.7875	0.005045547
0.788	0.005034614
0.7885	0.005023681
0.789	0.005012791
0.7895	0.005001858
0.79	0.004990925
0.7905	0.004980034
0.791	0.004969101
0.7915	0.004958168
0.792	0.004947235
0.7925	0.004936345
0.793	0.004925412
0.7935	0.004914479
0.794	0.004903589
0.7945	0.004892656
0.795	0.004881723
0.7955	0.00487079
0.796	0.004859899
0.7965	0.004848966
0.797	0.004838033
0.7975	0.004827527
0.798	0.004817021
0.7985	0.004806515
0.799	0.004796009
0.7995	0.004785504
0.8	0.004774998
0.8005	0.004764492
0.801	0.004753986
0.8015	0.00474348
0.802	0.004732931
0.8025	0.004722425
0.803	0.004711919
0.8035	0.004701413
0.804	0.004690907
0.8045	0.004680401
0.805	0.004669895
0.8055	0.004659389
0.806	0.004648883
0.8065	0.004638378
0.807	0.004627872
0.8075	0.004617921
0.808	0.00460797
0.8085	0.004598062
0.809	0.004588111
0.8095	0.004578203
0.81	0.004568252
0.8105	0.004558302
0.811	0.004548394
0.8115	0.004538443
0.812	0.004528492
0.8125	0.004518584
0.813	0.004508633
0.8135	0.004498683
0.814	0.004488774
0.8145	0.004478824
0.815	0.004468873
0.8155	0.004458965
0.816	0.004449014
0.8165	0.004439063
0.817	0.004429155
0.8175	0.00441976
0.818	0.004410322
0.8185	0.004400926
0.819	0.00439153
0.8195	0.004382135
0.82	0.004372739
0.8205	0.004363301
0.821	0.004353905
0.8215	0.00434451
0.822	0.004335114
0.8225	0.004325719
0.823	0.004316323
0.8235	0.004306885
0.824	0.004297489
0.8245	0.004288094
0.825	0.004278698
0.8255	0.00426929
0.826	0.004259886
0.8265	0.004250482
0.827	0.004241082
0.8275	0.004232194
0.828	0.004223311
0.8285	0.004214428
0.829	0.004205545
0.8295	0.004196662
0.83	0.004187779
0.8305	0.004178896
0.831	0.004170013
0.8315	0.00416113
0.832	0.004152242
0.8325	0.004143359
0.833	0.004134476
0.8335	0.004125593
0.834	0.00411671
0.8345	0.004107827
0.835	0.004098944
0.8355	0.004090061
0.836	0.004081173
0.8365	0.00407229
0.837	0.004063407
0.8375	0.004055092
0.838	0.004046773
0.8385	0.004038458
0.839	0.004030138
0.8395	0.004021823
0.84	0.004013504
0.8405	0.004005189
0.841	0.00399687
0.8415	0.003988555
0.842	0.003980235
0.8425	0.00397192
0.843	0.003963601
0.8435	0.003955286
0.844	0.003946966
0.8445	0.003938651
0.845	0.003930332
0.8455	0.003922017
0.846	0.003913698
0.8465	0.003905382
0.847	0.003897063
0.8475	0.003889077
0.848	0.003881086
0.8485	0.003873096
0.849	0.003865105
0.8495	0.003857119
0.85	0.003849129
0.8505	0.003841138
0.851	0.003833152
0.8515	0.003825161
0.852	0.003817171
0.8525	0.00380918
0.853	0.003801194
0.8535	0.003793204
0.854	0.003785213
0.8545	0.003777223
0.855	0.003769236
0.8555	0.003761246
0.856	0.003753255
0.8565	0.003745265
0.857	0.003737279
0.8575	0.003729715
0.858	0.003722152
0.8585	0.003714588
0.859	0.003707029
0.8595	0.003699466
0.86	0.003691902
0.8605	0.003684339
0.861	0.00367678
0.8615	0.003669216
0.862	0.003661653
0.8625	0.003654089
0.863	0.003646526
0.8635	0.003638967
0.864	0.003631403
0.8645	0.00362384
0.865	0.003616277
0.8655	0.003608717
0.866	0.003601154
0.8665	0.003593591
0.867	0.003586027
0.8675	0.003578801
0.868	0.003571575
0.8685	0.003564349
0.869	0.003557123
0.8695	0.003549893
0.87	0.003542667
0.8705	0.003535441
0.871	0.003528215
0.8715	0.003520988
0.872	0.003513762
0.8725	0.003506532
0.873	0.003499306
0.8735	0.00349208
0.874	0.003484854
0.8745	0.003477628
0.875	0.003470398
0.8755	0.003463172
0.876	0.003455946
0.8765	0.003448719
0.877	0.003441493
0.8775	0.003434669
0.878	0.003427844
0.8785	0.00342102
0.879	0.003414191
0.8795	0.003407366
0.88	0.003400542
0.8805	0.003393717
0.881	0.003386892
0.8815	0.003380068
0.882	0.003373243
0.8825	0.003366419
0.883	0.003359594
0.8835	0.003352769
0.884	0.003345945
0.8845	0.00333912
0.885	0.003332296
0.8855	0.003325467
0.886	0.003318642
0.8865	0.003311818
0.887	0.003304993
0.8875	0.003298459
0.888	0.003291925
0.8885	0.003285386
0.889	0.003278852
0.8895	0.003272318
0.89	0.003265784
0.8905	0.003259245
0.891	0.003252711
0.8915	0.003246177
0.892	0.003239638
0.8925	0.003233104
0.893	0.00322657
0.8935	0.003220036
0.894	0.003213497
0.8945	0.003206963
0.895	0.003200429
0.8955	0.00319389
0.896	0.003187356
0.8965	0.003180822
0.897	0.003174288
0.8975	0.003168078
0.898	0.003161869
0.8985	0.003155659
0.899	0.003149454
0.8995	0.003143244
0.9	0.003137034
0.9005	0.003130829
0.901	0.003124619
0.9015	0.00311841
0.902	0.0031122
0.9025	0.003105995
0.903	0.003099785
0.9035	0.003093576
0.904	0.00308737
0.9045	0.003081161
0.905	0.003074951
0.9055	0.003068741
0.906	0.003062536
0.9065	0.003056326
0.907	0.003050117
0.9075	0.003044309
0.908	0.003038496
0.9085	0.003032688
0.909	0.003026876
0.9095	0.003021067
0.91	0.003015255
0.9105	0.003009443
0.911	0.003003634
0.9115	0.002997822
0.912	0.002992014
0.9125	0.002986201
0.913	0.002980393
0.9135	0.002974581
0.914	0.002968773
0.9145	0.00296296
0.915	0.002957148
0.9155	0.00295134
0.916	0.002945527
0.9165	0.002939719
0.917	0.002933907
0.9175	0.00292835
0.918	0.002922794
0.9185	0.002917238
0.919	0.002911677
0.9195	0.002906121
0.92	0.002900565
0.9205	0.002895009
0.921	0.002889453
0.9215	0.002883896
0.922	0.002878336
0.9225	0.00287278
0.923	0.002867224
0.9235	0.002861667
0.924	0.002856111
0.9245	0.002850551
0.925	0.002844995
0.9255	0.002839438
0.926	0.002833882
0.9265	0.002828326
0.927	0.00282277
0.9275	0.002817466
0.928	0.002812166
0.9285	0.002806866
0.929	0.002801566
0.9295	0.002796261
0.93	0.002790962
0.9305	0.002785662
0.931	0.002780362
0.9315	0.002775062
0.932	0.002769757
0.9325	0.002764457
0.933	0.002759158
0.9335	0.002753858
0.934	0.002748553
0.9345	0.002743253
0.935	0.002737953
0.9355	0.002732653
0.936	0.002727354
0.9365	0.002722049
0.937	0.002716749
0.9375	0.002711642
0.938	0.002706538
0.9385	0.00270143
0.939	0.002696323
0.9395	0.002691215
0.94	0.002686111
0.9405	0.002681003
0.941	0.002675896
0.9415	0.002670788
0.942	0.00266568
0.9425	0.002660577
0.943	0.002655469
0.9435	0.002650361
0.944	0.002645253
0.9445	0.00264015
0.945	0.002635042
0.9455	0.002629934
0.946	0.002624827
0.9465	0.002619719
0.947	0.002614615
0.9475	0.002609815
0.948	0.002605019
0.9485	0.002600223
0.949	0.002595423
0.9495	0.002590627
0.95	0.002585831
0.9505	0.002581035
0.951	0.002576234
0.9515	0.002571438
0.952	0.002566642
0.9525	0.002561842
0.953	0.002557046
0.9535	0.00255225
0.954	0.002547454
0.9545	0.002542654
0.955	0.002537858
0.9555	0.002533062
0.956	0.002528261
0.9565	0.002523465
0.957	0.002518669
0.9575	0.002514083
0.958	0.002509496
0.9585	0.002504909
0.959	0.002500322
0.9595	0.002495736
0.96	0.002491149
0.9605	0.002486562
0.961	0.002481976
0.9615	0.002477389
0.962	0.002472802
0.9625	0.002468215
0.963	0.002463629
0.9635	0.002459046
0.964	0.002454459
0.9645	0.002449873
0.965	0.002445286
0.9655	0.002440699
0.966	0.002436112
0.9665	0.002431526
0.967	0.002426939
0.9675	0.00242257
0.968	0.002418205
0.9685	0.002413841
0.969	0.002409472
0.9695	0.002405107
0.97	0.002400738
0.9705	0.002396373
0.971	0.002392004
0.9715	0.00238764
0.972	0.002383271
0.9725	0.002378906
0.973	0.002374537
0.9735	0.002370173
0.974	0.002365804
0.9745	0.002361439
0.975	0.002357074
0.9755	0.002352705
0.976	0.002348341
0.9765	0.002343972
0.977	0.002339607
0.9775	0.002335413
0.978	0.002331219
0.9785	0.00232703
0.979	0.002322836
0.9795	0.002318642
0.98	0.002314448
0.9805	0.002310259
0.981	0.002306065
0.9815	0.002301871
0.982	0.002297677
0.9825	0.002293488
0.983	0.002289294
0.9835	0.0022851
0.984	0.00228091
0.9845	0.002276717
0.985	0.002272523
0.9855	0.002268329
0.986	0.002264139
0.9865	0.002259945
0.987	0.002255752
0.9875	0.00225175
0.988	0.002247748
0.9885	0.002243742
0.989	0.002239741
0.9895	0.002235739
0.99	0.002231737
0.9905	0.002227731
0.991	0.00222373
0.9915	0.002219728
0.992	0.002215722
0.9925	0.002211721
0.993	0.002207719
0.9935	0.002203717
0.994	0.002199711
0.9945	0.00219571
0.995	0.002191708
0.9955	0.002187702
0.996	0.0021837
0.9965	0.002179699
0.997	0.002175697
0.9975	0.002171926
0.998	0.002168155
0.9985	0.002164384
0.999	0.002160613
0.9995	0.002156842
1	0.002153071
1.0005	0.0021493
1.001	0.002145529
1.0015	0.002141754
1.002	0.002137982
1.0025	0.002134211
1.003	0.00213044
1.0035	0.002126669
1.004	0.002122898
1.0045	0.002119127
1.005	0.002115356
1.0055	0.002111585
1.006	0.002107814
1.0065	0.002104043
1.007	0.002100272
1.0075	0.002096629
1.008	0.002092986
1.0085	0.002089343
1.009	0.002085696
1.0095	0.002082053
1.01	0.00207841
1.0105	0.002074763
1.011	0.00207112
1.0115	0.002067477
1.012	0.002063834
1.0125	0.002060187
1.013	0.002056544
1.0135	0.002052901
1.014	0.002049254
1.0145	0.002045611
1.015	0.002041968
1.0155	0.002038325
1.016	0.002034678
1.0165	0.002031035
1.017	0.002027392
1.0175	0.002023912
1.018	0.002020435
1.0185	0.002016959
1.019	0.002013478
1.0195	0.002010002
1.02	0.002006526
1.0205	0.002003045
1.021	0.001999569
1.0215	0.001996092
1.022	0.001992616
1.0225	0.001989135
1.023	0.001985659
1.0235	0.001982183
1.024	0.001978702
1.0245	0.001975226
1.025	0.001971749
1.0255	0.001968269
1.026	0.001964792
1.0265	0.001961316
1.027	0.001957835
1.0275	0.001954508
1.028	0.001951177
1.0285	0.001947846
1.029	0.001944515
1.0295	0.001941188
1.03	0.001937857
1.0305	0.001934526
1.031	0.001931195
1.0315	0.001927868
1.032	0.001924537
1.0325	0.001921205
1.033	0.001917874
1.0335	0.001914547
1.034	0.001911216
1.0345	0.001907885
1.035	0.001904554
1.0355	0.001901223
1.036	0.001897896
1.0365	0.001894565
1.037	0.001891234
1.0375	0.001888065
1.038	0.001884896
1.0385	0.001881727
1.039	0.001878558
1.0395	0.001875389
1.04	0.00187222
1.0405	0.001869051
1.041	0.001865883
1.0415	0.001862714
1.042	0.001859541
1.0425	0.001856372
1.043	0.001853203
1.0435	0.001850034
1.044	0.001846865
1.0445	0.001843696
1.045	0.001840527
1.0455	0.001837359
1.046	0.00183419
1.0465	0.001831021
1.047	0.001827852
1.0475	0.001824798
1.048	0.001821745
1.0485	0.001818687
1.049	0.001815633
1.0495	0.00181258
1.05	0.001809526
1.0505	0.001806473
1.051	0.001803419
1.0515	0.001800366
1.052	0.001797312
1.0525	0.001794259
1.053	0.001791205
1.0535	0.001788151
1.054	0.001785094
1.0545	0.00178204
1.055	0.001778986
1.0555	0.001775933
1.056	0.001772879
1.0565	0.001769826
1.057	0.001766772
1.0575	0.001763838
1.058	0.001760904
1.0585	0.00175797
1.059	0.001755036
1.0595	0.001752102
1.06	0.001749168
1.0605	0.001746234
1.061	0.0017433
1.0615	0.001740366
1.062	0.001737432
1.0625	0.001734498
1.063	0.001731564
1.0635	0.00172863
1.064	0.001725696
1.0645	0.001722763
1.065	0.001719829
1.0655	0.001716895
1.066	0.001713961
1.0665	0.001711027
1.067	0.001708093
1.0675	0.001705334
1.068	0.001702571
1.0685	0.001699812
1.069	0.001697053
1.0695	0.001694294
1.07	0.001691535
1.0705	0.001688776
1.071	0.001686017
1.0715	0.001683258
1.072	0.0016805
1.0725	0.001677736
1.073	0.001674978
1.0735	0.001672219
1.074	0.00166946
1.0745	0.001666701
1.075	0.001663942
1.0755	0.001661183
1.076	0.001658424
1.0765	0.001655665
1.077	0.001652902
1.0775	0.00165025
1.078	0.001647594
1.0785	0.001644942
1.079	0.001642285
1.0795	0.001639633
1.08	0.001636977
1.0805	0.001634325
1.081	0.001631668
1.0815	0.001629012
1.082	0.00162636
1.0825	0.001623703
1.083	0.001621051
1.0835	0.001618395
1.084	0.001615743
1.0845	0.001613086
1.085	0.00161043
1.0855	0.001607778
1.086	0.001605121
1.0865	0.001602469
1.087	0.001599813
1.0875	0.001597229
1.088	0.00159465
1.0885	0.001592066
1.089	0.001589482
1.0895	0.001586898
1.09	0.001584315
1.0905	0.001581735
1.091	0.001579151
1.0915	0.001576568
1.092	0.001573984
1.0925	0.0015714
1.093	0.00156882
1.0935	0.001566237
1.094	0.001563653
1.0945	0.001561069
1.095	0.001558485
1.0955	0.001555906
1.096	0.001553322
1.0965	0.001550738
1.097	0.001548154
1.0975	0.001545724
1.098	0.001543294
1.0985	0.00154086
1.099	0.00153843
1.0995	0.001536
1.1	0.001533566
1.1005	0.001531136
1.101	0.001528706
1.1015	0.001526276
1.102	0.001523841
1.1025	0.001521411
1.103	0.001518981
1.1035	0.001516547
1.104	0.001514117
1.1045	0.001511687
1.105	0.001509253
1.1055	0.001506823
1.106	0.001504392
1.1065	0.001501962
1.107	0.001499528
1.1075	0.001497154
1.108	0.001494775
1.1085	0.001492396
1.109	0.001490017
1.1095	0.001487643
1.11	0.001485264
1.1105	0.001482885
1.111	0.001480506
1.1115	0.001478132
1.112	0.001475753
1.1125	0.001473374
1.113	0.001470996
1.1135	0.001468617
1.114	0.001466242
1.1145	0.001463863
1.115	0.001461485
1.1155	0.001459106
1.116	0.001456731
1.1165	0.001454353
1.117	0.001451974
1.1175	0.001449715
1.118	0.001447451
1.1185	0.001445192
1.119	0.001442928
1.1195	0.001440669
1.12	0.001438406
1.1205	0.001436147
1.121	0.001433883
1.1215	0.00143162
1.122	0.00142936
1.1225	0.001427097
1.123	0.001424838
1.1235	0.001422574
1.124	0.001420315
1.1245	0.001418051
1.125	0.001415792
1.1255	0.001413529
1.126	0.00141127
1.1265	0.001409006
1.127	0.001406747
1.1275	0.001404582
1.128	0.001402421
1.1285	0.001400255
1.129	0.001398094
1.1295	0.001395929
1.13	0.001393768
1.1305	0.001391603
1.131	0.001389442
1.1315	0.001387277
1.132	0.001385116
1.1325	0.001382951
1.133	0.00138079
1.1335	0.001378624
1.134	0.001376459
1.1345	0.001374298
1.135	0.001372133
1.1355	0.001369972
1.136	0.001367807
1.1365	0.001365646
1.137	0.00136348
1.1375	0.001361396
1.138	0.001359308
1.1385	0.001357224
1.139	0.001355135
1.1395	0.001353047
1.14	0.001350963
1.1405	0.001348875
1.141	0.001346786
1.1415	0.001344702
1.142	0.001342614
1.1425	0.00134053
1.143	0.001338441
1.1435	0.001336353
1.144	0.001334269
1.1445	0.00133218
1.145	0.001330092
1.1455	0.001328008
1.146	0.001325919
1.1465	0.001323831
1.147	0.001321747
1.1475	0.001319727
1.148	0.001317707
1.1485	0.001315683
1.149	0.001313662
1.1495	0.001311642
1.15	0.001309622
1.1505	0.001307602
1.151	0.001305582
1.1515	0.001303558
1.152	0.001301538
1.1525	0.001299518
1.153	0.001297498
1.1535	0.001295478
1.154	0.001293458
1.1545	0.001291433
1.155	0.001289413
1.1555	0.001287393
1.156	0.001285373
1.1565	0.001283353
1.157	0.001281333
1.1575	0.001279411
1.158	0.001277494
1.1585	0.001275576
1.159	0.001273654
1.1595	0.001271737
1.16	0.001269819
1.1605	0.001267902
1.161	0.00126598
1.1615	0.001264062
1.162	0.001262145
1.1625	0.001260223
1.163	0.001258306
1.1635	0.001256388
1.164	0.00125447
1.1645	0.001252549
1.165	0.001250631
1.1655	0.001248713
1.166	0.001246792
1.1665	0.001244874
1.167	0.001242957
1.1675	0.001241095
1.168	0.001239237
1.1685	0.001237379
1.169	0.001235517
1.1695	0.001233659
1.17	0.001231801
1.1705	0.001229939
1.171	0.001228082
1.1715	0.001226224
1.172	0.001224362
1.1725	0.001222504
1.173	0.001220646
1.1735	0.001218784
1.174	0.001216927
1.1745	0.001215069
1.175	0.001213207
1.1755	0.001211349
1.176	0.001209491
1.1765	0.001207629
1.177	0.001205771
1.1775	0.001203978
1.178	0.001202184
1.1785	0.00120039
1.179	0.001198601
1.1795	0.001196807
1.18	0.001195014
1.1805	0.00119322
1.181	0.00119143
1.1815	0.001189637
1.182	0.001187843
1.1825	0.001186049
1.183	0.001184256
1.1835	0.001182466
1.184	0.001180673
1.1845	0.001178879
1.185	0.001177085
1.1855	0.001175296
1.186	0.001173502
1.1865	0.001171708
1.187	0.001169915
1.1875	0.001168193
1.188	0.001166468
1.1885	0.001164743
1.189	0.001163017
1.1895	0.001161296
1.19	0.001159571
1.1905	0.001157846
1.191	0.00115612
1.1915	0.001154399
1.192	0.001152674
1.1925	0.001150948
1.193	0.001149223
1.1935	0.001147502
1.194	0.001145777
1.1945	0.001144051
1.195	0.001142326
1.1955	0.001140605
1.196	0.001138879
1.1965	0.001137154
1.197	0.001135429
1.1975	0.00113378
1.198	0.001132127
1.1985	0.001130479
1.199	0.001128826
1.1995	0.001127178
1.2	0.001125525
1.2005	0.001123872
1.201	0.001122224
1.2015	0.001120571
1.202	0.001118922
1.2025	0.00111727
1.203	0.001115621
1.2035	0.001113968
1.204	0.001112316
1.2045	0.001110667
1.205	0.001109014
1.2055	0.001107366
1.206	0.001105713
1.2065	0.001104064
1.207	0.001102412
1.2075	0.00110081
1.208	0.001099213
1.2085	0.001097611
1.209	0.00109601
1.2095	0.001094413
1.21	0.001092811
1.2105	0.00109121
1.211	0.001089612
1.2115	0.001088011
1.212	0.001086409
1.2125	0.001084812
1.213	0.001083211
1.2135	0.001081609
1.214	0.001080012
1.2145	0.00107841
1.215	0.001076809
1.2155	0.001075207
1.216	0.00107361
1.2165	0.001072009
1.217	0.001070407
1.2175	0.001068878
1.218	0.001067349
1.2185	0.00106582
1.219	0.001064291
1.2195	0.001062762
1.22	0.001061229
1.2205	0.0010597
1.221	0.001058171
1.2215	0.001056643
1.222	0.001055114
1.2225	0.00105358
1.223	0.001052051
1.2235	0.001050523
1.224	0.001048994
1.2245	0.001047465
1.225	0.001045932
1.2255	0.001044403
1.226	0.001042874
1.2265	0.001041345
1.227	0.001039816
1.2275	0.001038343
1.228	0.001036873
1.2285	0.0010354
1.229	0.001033931
1.2295	0.001032457
1.23	0.001030988
1.2305	0.001029515
1.231	0.001028046
1.2315	0.001026572
1.232	0.001025103
1.2325	0.001023634
1.233	0.001022161
1.2335	0.001020692
1.234	0.001019218
1.2345	0.001017749
1.235	0.001016276
1.2355	0.001014807
1.236	0.001013333
1.2365	0.001011864
1.237	0.001010391
1.2375	0.001008956
1.238	0.001007521
1.2385	0.001006082
1.239	0.001004647
1.2395	0.001003207
1.24	0.001001772
1.2405	0.001000337
1.241	0.000998898
1.2415	0.000997463
1.242	0.000996024
1.2425	0.000994589
1.243	0.000993154
1.2435	0.000991715
1.244	0.00099028
1.2445	0.000988841
1.245	0.000987406
1.2455	0.000985971
1.246	0.000984532
1.2465	0.000983097
1.247	0.000981657
1.2475	0.000980282
1.248	0.000978903
1.2485	0.000977523
1.249	0.000976148
1.2495	0.000974769
1.25	0.000973389
1.2505	0.000972014
1.251	0.000970635
1.2515	0.000969255
1.252	0.00096788
1.2525	0.000966501
1.253	0.000965121
1.2535	0.000963746
1.254	0.000962367
1.2545	0.000960987
1.255	0.000959612
1.2555	0.000958232
1.256	0.000956853
1.2565	0.000955478
1.257	0.000954098
1.2575	0.000952757
1.258	0.000951421
1.2585	0.00095008
1.259	0.000948739
1.2595	0.000947398
1.26	0.000946061
1.2605	0.00094472
1.261	0.000943379
1.2615	0.000942042
1.262	0.000940701
1.2625	0.00093936
1.263	0.000938023
1.2635	0.000936682
1.264	0.000935341
1.2645	0.000934
1.265	0.000932664
1.2655	0.000931323
1.266	0.000929982
1.2665	0.000928645
1.267	0.000927304
1.2675	0.000926019
1.268	0.000924733
1.2685	0.000923452
1.269	0.000922166
1.2695	0.000920881
1.27	0.000919595
1.2705	0.00091831
1.271	0.000917024
1.2715	0.000915743
1.272	0.000914458
1.2725	0.000913172
1.273	0.000911887
1.2735	0.000910601
1.274	0.00090932
1.2745	0.000908035
1.275	0.000906749
1.2755	0.000905464
1.276	0.000904178
1.2765	0.000902897
1.277	0.000901611
1.2775	0.000900373
1.278	0.000899139
1.2785	0.0008979
1.279	0.000896666
1.2795	0.000895427
1.28	0.000894193
1.2805	0.000892955
1.281	0.000891716
1.2815	0.000890482
1.282	0.000889243
1.2825	0.000888009
1.283	0.000886771
1.2835	0.000885536
1.284	0.000884298
1.2845	0.000883064
1.285	0.000881825
1.2855	0.000880591
1.286	0.000879352
1.2865	0.000878118
1.287	0.00087688
1.2875	0.000875684
1.288	0.000874488
1.2885	0.000873288
1.289	0.000872092
1.2895	0.000870896
1.29	0.000869701
1.2905	0.000868505
1.291	0.000867309
1.2915	0.000866109
1.292	0.000864913
1.2925	0.000863717
1.293	0.000862522
1.2935	0.000861326
1.294	0.000860126
1.2945	0.00085893
1.295	0.000857734
1.2955	0.000856538
1.296	0.000855342
1.2965	0.000854142
1.297	0.000852947
1.2975	0.000851781
1.298	0.000850619
1.2985	0.000849453
1.299	0.000848287
1.2995	0.000847121
1.3	0.00084596
1.3005	0.000844794
1.301	0.000843628
1.3015	0.000842462
1.302	0.000841296
1.3025	0.000840134
1.303	0.000838969
1.3035	0.000837803
1.304	0.000836637
1.3045	0.000835471
1.305	0.000834309
1.3055	0.000833143
1.306	0.000831977
1.3065	0.000830812
1.307	0.00082965
1.3075	0.000828531
1.308	0.000827412
1.3085	0.000826293
1.309	0.000825174
1.3095	0.00082406
1.31	0.000822941
1.3105	0.000821822
1.311	0.000820703
1.3115	0.000819588
1.312	0.000818469
1.3125	0.00081735
1.313	0.000816231
1.3135	0.000815112
1.314	0.000813998
1.3145	0.000812879
1.315	0.00081176
1.3155	0.000810641
1.316	0.000809526
1.3165	0.000808407
1.317	0.000807288
1.3175	0.000806195
1.318	0.000805098
1.3185	0.000804004
1.319	0.000802911
1.3195	0.000801813
1.32	0.00080072
1.3205	0.000799623
1.321	0.000798529
1.3215	0.000797436
1.322	0.000796338
1.3225	0.000795245
1.323	0.000794147
1.3235	0.000793054
1.324	0.000791961
1.3245	0.000790863
1.325	0.00078977
1.3255	0.000788677
1.326	0.000787579
1.3265	0.000786486
1.327	0.000785388
1.3275	0.000784333
1.328	0.000783274
1.3285	0.000782219
1.329	0.00078116
1.3295	0.000780105
1.33	0.000779046
1.3305	0.000777991
1.331	0.000776932
1.3315	0.000775877
1.332	0.000774818
1.3325	0.000773763
1.333	0.000772704
1.3335	0.000771649
1.334	0.00077059
1.3345	0.000769535
1.335	0.000768476
1.3355	0.000767421
1.336	0.000766362
1.3365	0.000765307
1.337	0.000764248
1.3375	0.000763228
1.338	0.000762203
1.3385	0.000761178
1.339	0.000760153
1.3395	0.000759128
1.34	0.000758107
1.3405	0.000757082
1.341	0.000756057
1.3415	0.000755032
1.342	0.000754011
1.3425	0.000752986
1.343	0.000751961
1.3435	0.000750936
1.344	0.000749916
1.3445	0.000748891
1.345	0.000747866
1.3455	0.000746841
1.346	0.00074582
1.3465	0.000744795
1.347	0.00074377
1.3475	0.000742784
1.348	0.000741793
1.3485	0.000740806
1.349	0.00073982
1.3495	0.000738829
1.35	0.000737842
1.3505	0.000736856
1.351	0.000735869
1.3515	0.000734879
1.352	0.000733892
1.3525	0.000732905
1.353	0.000731915
1.3535	0.000730928
1.354	0.000729942
1.3545	0.000728951
1.355	0.000727964
1.3555	0.000726978
1.356	0.000725987
1.3565	0.000725
1.357	0.000724014
1.3575	0.000723049
1.358	0.000722083
1.3585	0.000721118
1.359	0.000720153
1.3595	0.000719188
1.36	0.000718223
1.3605	0.000717258
1.361	0.000716292
1.3615	0.000715327
1.362	0.000714362
1.3625	0.000713397
1.363	0.000712432
1.3635	0.000711466
1.364	0.000710501
1.3645	0.000709536
1.365	0.000708571
1.3655	0.000707606
1.366	0.000706641
1.3665	0.000705675
1.367	0.00070471
1.3675	0.000703775
1.368	0.00070284
1.3685	0.0007019
1.369	0.000700965
1.3695	0.000700025
1.37	0.00069909
1.3705	0.00069815
1.371	0.000697215
1.3715	0.00069628
1.372	0.00069534
1.3725	0.000694405
1.373	0.000693465
1.3735	0.00069253
1.374	0.000691591
1.3745	0.000690655
1.375	0.000689716
1.3755	0.00068878
1.376	0.000687845
1.3765	0.000686906
1.377	0.00068597
1.3775	0.000685056
1.378	0.000684147
1.3785	0.000683237
1.379	0.000682323
1.3795	0.000681413
1.38	0.000680504
1.3805	0.00067959
1.381	0.00067868
1.3815	0.000677771
1.382	0.000676857
1.3825	0.000675947
1.383	0.000675033
1.3835	0.000674123
1.384	0.000673214
1.3845	0.0006723
1.385	0.00067139
1.3855	0.00067048
1.386	0.000669567
1.3865	0.000668657
1.387	0.000667747
1.3875	0.000666872
1.388	0.000665996
1.3885	0.000665121
1.389	0.000664249
1.3895	0.000663374
1.39	0.000662499
1.3905	0.000661623
1.391	0.000660752
1.3915	0.000659876
1.392	0.000659001
1.3925	0.000658125
1.393	0.000657254
1.3935	0.000656379
1.394	0.000655503
1.3945	0.000654632
1.395	0.000653756
1.3955	0.000652881
1.396	0.000652005
1.3965	0.000651134
1.397	0.000650259
1.3975	0.0006494
1.398	0.000648538
1.3985	0.000647679
1.399	0.000646821
1.3995	0.000645962
1.4	0.000645104
1.4005	0.000644241
1.401	0.000643383
1.4015	0.000642524
1.402	0.000641666
1.4025	0.000640808
1.403	0.000639945
1.4035	0.000639086
1.404	0.000638228
1.4045	0.00063737
1.405	0.000636511
1.4055	0.000635649
1.406	0.00063479
1.4065	0.000633932
1.407	0.000633073
1.4075	0.000632232
1.408	0.000631395
1.4085	0.000630554
1.409	0.000629717
1.4095	0.000628879
1.41	0.000628038
1.4105	0.000627201
1.411	0.00062636
1.4115	0.000625523
1.412	0.000624681
1.4125	0.000623844
1.413	0.000623007
1.4135	0.000622166
1.414	0.000621329
1.4145	0.000620488
1.415	0.00061965
1.4155	0.000618809
1.416	0.000617972
1.4165	0.000617135
1.417	0.000616294
1.4175	0.000615482
1.418	0.000614667
1.4185	0.000613855
1.419	0.000613044
1.4195	0.000612228
1.42	0.000611417
1.4205	0.000610601
1.421	0.000609789
1.4215	0.000608978
1.422	0.000608162
1.4225	0.000607351
1.423	0.000606535
1.4235	0.000605724
1.424	0.000604912
1.4245	0.000604097
1.425	0.000603285
1.4255	0.000602469
1.426	0.000601658
1.4265	0.000600847
1.427	0.000600031
1.4275	0.000599266
1.428	0.000598502
1.4285	0.000597737
1.429	0.000596973
1.4295	0.000596209
1.43	0.000595444
1.4305	0.00059468
1.431	0.000593911
1.4315	0.000593146
1.432	0.000592382
1.4325	0.000591617
1.433	0.000590853
1.4335	0.000590089
1.434	0.000589324
1.4345	0.00058856
1.435	0.000587795
1.4355	0.000587031
1.436	0.000586262
1.4365	0.000585498
1.437	0.000584733
